 54.90 56.30 1007.07 1007.60 1006.19 1010.48 1007.57 1005.75 1003.17 1008.01 1006.53 1010.01 1009.60 1010.08 1012.84
 56.60 56.10 1008.08 1008.54 1007.09 1010.26 1007.86 1006.36 1003.09 1008.26 1005.96 1010.07 1010.32 1011.15 1013.01
 56.90 55.80 1009.23 1008.71 1008.06 1010.45 1007.87 1006.38 1003.50 1008.26 1006.06 1010.15 1010.95 1011.26 1013.16
 58.60 55.90 1009.05 1008.37 1007.62 1010.31 1007.45 1006.54 1002.23 1008.41 1006.09 1010.59 1010.53 1011.77 1013.64
 57.90 55.70 1009.60 1008.44 1007.82 1011.39 1007.41 1006.41 1003.20 1008.43 1007.05 1010.56 1011.07 1011.44 1013.26
 54.30 55.40 1008.30 1010.01 1009.29 1011.43 1009.57 1006.08 1005.78 1009.52 1011.70 1012.62 1014.17 1011.25 1015.20
 53.80 55.20 1008.17 1008.75 1007.63 1010.97 1008.18 1006.02 1004.10 1008.74 1006.49 1009.50 1010.65 1011.39 1013.18
 55.50 55.40 1008.90 1009.33 1008.29 1010.73 1008.40 1005.98 1003.73 1008.69 1006.53 1008.72 1011.35 1011.80 1013.48
 56.60 55.40 1009.49 1009.40 1008.43 1012.37 1008.09 1006.66 1003.32 1007.58 1010.80 1008.17 1010.93 1012.12 1012.83
 55.40 55.10 1009.64 1009.51 1008.56 1011.17 1008.28 1006.96 1003.76 1008.89 1006.69 1011.64 1012.00 1012.52 1014.06
 56.90 54.90 1010.31 1010.12 1008.94 1010.65 1008.26 1006.65 1003.44 1008.42 1006.89 1010.43 1012.75 1013.18 1013.79
 54.90 54.10 1010.13 1009.61 1008.69 1012.06 1007.72 1006.42 1003.54 1008.19 1007.37 1010.41 1013.48 1013.81 1013.97
 52.80 54.60 1008.62 1009.46 1008.28 1011.89 1008.54 1006.50 1004.83 1009.23 1007.13 1009.98 1011.53 1011.77 1013.44
 54.20 54.00 1010.22 1010.60 1009.48 1012.14 1008.62 1005.98 1004.73 1008.60 1012.50 1010.45 1013.05 1013.36 1013.94
 55.40 54.60 1009.66 1009.97 1008.68 1011.24 1008.66 1006.24 1003.96 1009.30 1006.36 1009.67 1013.05 1012.90 1014.34
 56.80 54.40 1010.87 1010.61 1009.29 1011.71 1008.35 1006.50 1003.84 1008.89 1007.15 1010.45 1013.69 1014.03 1014.52
 59.40 54.40 1011.29 1009.50 1009.33 1011.32 1007.84 1006.73 1002.25 1008.76 1011.86 1012.11 1012.15 1013.33 1015.35
 57.40 53.90 1011.99 1011.42 1010.26 1012.31 1008.88 1006.99 1004.05 1010.12 1007.80 1013.08 1014.76 1015.42 1015.86
 56.00 53.60 1011.54 1011.69 1010.15 1012.16 1008.76 1006.40 1004.31 1009.88 1007.59 1010.28 1014.60 1014.94 1015.10
 55.10 53.10 1011.40 1011.70 1010.43 1012.94 1009.07 1006.02 1004.50 1008.80 1007.52 1014.09 1014.99 1014.71 1015.14
 58.30 53.90 1012.87 1012.84 1009.31 1011.61 1008.07 1007.45 1006.54 1009.13 1010.50 1012.07 1014.55 1014.76 1015.61
 55.90 52.90 1012.56 1012.44 1010.73 1012.21 1008.98 1006.30 1004.47 1009.20 1013.10 1010.74 1015.67 1015.94 1015.70
 57.50 52.80 1011.74 1011.11 1009.98 1012.28 1008.22 1007.16 1003.71 1009.22 1008.44 1012.89 1016.14 1016.03 1015.43
 55.80 52.80 1012.70 1012.65 1010.96 1012.34 1009.13 1006.47 1004.89 1009.14 1008.14 1011.18 1015.46 1015.65 1015.38
 56.60 52.70 1013.42 1013.27 1011.65 1013.94 1009.34 1006.89 1005.10 1009.51 1008.90 1014.19 1015.59 1015.94 1016.04
 58.30 52.60 1012.96 1012.80 1011.33 1012.84 1009.06 1007.04 1003.94 1008.78 1008.75 1011.81 1015.97 1016.08 1015.38
 57.40 52.20 1013.66 1014.42 1012.44 1011.43 1010.27 1006.91 1004.78 1010.84 1014.10 1009.81 1016.16 1016.16 1016.54
 58.20 51.90 1013.12 1013.30 1011.29 1012.92 1009.06 1007.15 1005.46 1008.87 1008.27 1011.77 1016.24 1015.84 1015.71
 47.10 56.10 1004.98 1007.71 1006.37 1009.71 1009.07 1005.51 1006.56 1008.80 1007.47 1008.31 1006.04 1008.49 1011.67
 47.50 55.50 1005.32 1008.46 1007.26 1010.50 1008.90 1005.36 1006.49 1008.85 1008.22 1009.20 1007.34 1009.35 1012.29
 46.30 55.20 1005.39 1008.81 1007.57 1010.56 1009.54 1005.83 1007.30 1009.54 1009.27 1008.94 1007.94 1009.57 1012.69
 46.60 54.90 1006.22 1009.43 1008.44 1011.26 1009.69 1005.82 1007.19 1009.30 1008.87 1010.14 1008.31 1010.07 1012.59
 47.60 55.10 1006.42 1009.53 1007.51 1010.99 1009.28 1005.75 1006.90 1009.50 1008.26 1009.67 1008.23 1009.69 1012.63
 48.30 59.90 1001.69 1003.88 1002.51 1007.87 1007.68 1004.95 1005.95 1007.27 1005.41 1005.38 1001.79 1004.65 1010.19
 48.90 59.40 1002.36 1005.08 1003.07 1007.75 1008.10 1005.12 1005.88 1007.30 1006.10 1005.83 1002.03 1005.31 1010.19
 47.90 58.80 1002.69 1005.06 1003.70 1008.00 1008.10 1005.18 1006.16 1007.90 1006.87 1006.09 1001.98 1005.51 1009.95
 49.70 58.50 1003.40 1005.87 1003.86 1008.30 1008.12 1005.19 1006.08 1007.63 1007.13 1007.40 1003.67 1006.63 1010.57
 47.10 58.30 1003.03 1005.48 1004.83 1009.12 1008.63 1005.50 1006.68 1008.63 1007.73 1007.55 1003.73 1006.48 1011.42
 48.40 58.30 1002.85 1005.78 1004.22 1008.60 1008.19 1005.03 1005.94 1008.05 1007.48 1007.23 1003.49 1006.85 1010.82
 49.10 58.00 1003.00 1006.06 1004.70 1008.37 1007.90 1004.85 1005.66 1008.02 1007.66 1007.55 1003.79 1007.21 1010.82
 49.90 58.10 1004.30 1006.82 1004.30 1008.57 1008.39 1005.32 1005.57 1007.52 1007.35 1007.51 1004.05 1007.14 1010.96
 47.90 57.40 1003.50 1006.40 1005.05 1008.97 1008.35 1004.92 1006.18 1008.05 1007.57 1007.18 1004.02 1007.43 1010.82
 49.90 57.60 1004.53 1007.26 1005.41 1008.72 1008.72 1005.35 1005.82 1008.28 1007.77 1008.32 1004.70 1008.40 1011.31
 47.30 56.90 1004.16 1006.86 1005.42 1009.13 1008.72 1005.19 1006.66 1008.39 1007.74 1007.36 1004.66 1007.61 1011.20
 50.80 59.30 1004.02 1006.44 1003.17 1007.99 1008.50 1005.55 1005.83 1007.42 1006.60 1005.93 1002.23 1006.38 1010.00
 52.20 59.30 1004.20 1006.02 1003.22 1008.05 1007.99 1005.29 1005.42 1007.05 1006.49 1006.12 1003.57 1006.09 1011.08
 50.90 58.90 1003.50 1005.75 1003.62 1008.25 1007.84 1004.98 1005.45 1007.12 1007.34 1006.58 1003.52 1006.60 1010.42
 51.60 58.40 1004.24 1006.04 1004.02 1008.31 1008.09 1005.28 1004.94 1007.38 1006.95 1007.37 1004.24 1007.29 1011.12
 51.50 57.80 1005.04 1006.61 1004.65 1009.02 1008.06 1005.29 1004.72 1007.56 1006.79 1008.15 1005.28 1007.76 1011.58
 50.00 57.10 1004.81 1007.14 1005.44 1009.31 1008.43 1005.33 1005.35 1008.06 1007.07 1008.21 1005.57 1008.12 1011.66
 51.10 56.90 1005.40 1007.09 1005.85 1009.68 1008.26 1005.51 1004.90 1008.18 1007.30 1009.00 1006.86 1008.87 1012.31
 51.10 56.20 1006.35 1007.72 1006.30 1010.32 1008.37 1005.66 1004.97 1008.57 1006.89 1009.52 1007.17 1009.35 1011.82
 47.60 60.70 1000.40 1002.60 1001.30 1006.81 1007.87 1004.63 1005.80 1006.90 1004.33 1003.99 1000.75 1002.28 1009.61
 52.60 60.50 1003.25 1005.22 1001.94 1007.19 1007.55 1004.99 1005.78 1006.27 1005.57 1004.98 1001.89 1004.27 1010.23
 54.30 60.30 1003.93 1005.18 1002.07 1006.89 1007.13 1005.35 1004.77 1006.15 1007.10 1004.47 1002.12 1004.45 1010.23
 55.00 59.90 1004.24 1005.31 1002.51 1006.75 1007.18 1005.42 1004.24 1006.16 1007.10 1005.00 1002.50 1005.15 1010.12
 54.50 59.60 1004.59 1005.41 1002.74 1008.14 1007.36 1005.13 1004.23 1006.40 1007.15 1005.39 1003.57 1005.59 1011.01
 54.70 59.00 1005.52 1005.80 1003.35 1007.31 1007.71 1005.60 1004.18 1007.02 1006.83 1006.22 1004.39 1006.35 1011.07
 46.60 56.40 1003.70 1006.81 1005.86 1009.79 1008.52 1005.09 1006.58 1008.53 1007.92 1007.49 1005.82 1007.82 1011.89
 48.70 57.00 1004.28 1007.21 1005.32 1009.10 1008.49 1005.15 1005.72 1007.88 1007.22 1007.72 1005.04 1007.79 1011.36
 49.00 56.40 1005.50 1008.08 1006.39 1010.10 1008.99 1005.71 1005.97 1008.73 1007.63 1008.87 1006.63 1008.97 1012.09
 43.20 54.60 1005.40 1007.86 1007.65 1010.34 1009.46 1005.76 1007.59 1009.23 1009.79 1008.54 1007.77 1009.62 1012.59
 43.80 54.40 1005.95 1008.99 1008.15 1010.74 1009.99 1006.61 1007.87 1009.68 1009.84 1009.56 1008.46 1010.35 1012.80
 43.30 54.10 1005.95 1008.80 1007.86 1010.77 1010.02 1006.42 1007.33 1009.78 1009.94 1009.65 1009.09 1009.64 1013.09
 45.10 54.20 1006.11 1009.47 1008.72 1010.90 1009.78 1006.02 1008.02 1009.78 1009.36 1009.98 1009.38 1010.51 1013.24
 45.90 54.20 1005.84 1009.45 1008.15 1010.65 1009.21 1005.59 1007.08 1009.44 1009.24 1009.63 1009.45 1009.99 1013.18
 44.40 53.90 1007.06 1010.24 1009.34 1011.57 1010.54 1006.84 1007.71 1010.12 1010.05 1010.73 1009.73 1010.90 1013.36
 43.80 56.30 1003.20 1006.10 1006.40 1009.53 1008.48 1005.26 1007.11 1008.77 1008.96 1007.03 1004.92 1007.59 1011.26
 44.00 56.30 1003.04 1006.23 1006.30 1009.45 1008.95 1005.47 1006.95 1008.97 1008.73 1007.33 1004.65 1007.56 1011.41
 43.40 56.70 1002.73 1005.38 1006.01 1009.12 1008.57 1005.31 1007.04 1008.31 1008.68 1006.70 1004.14 1006.85 1011.01
 44.50 56.80 1002.68 1005.46 1006.07 1009.56 1008.45 1005.08 1006.75 1008.84 1008.35 1007.13 1004.53 1007.30 1011.33
 45.40 56.80 1003.34 1005.05 1005.92 1009.23 1007.91 1005.14 1006.81 1008.83 1008.37 1007.17 1004.43 1007.52 1011.11
 45.20 57.10 1002.83 1005.37 1005.88 1009.17 1008.49 1004.96 1006.66 1008.59 1008.31 1007.44 1004.28 1007.00 1011.24
 46.60 57.70 1002.79 1005.29 1004.25 1008.45 1008.12 1004.46 1006.50 1007.57 1007.68 1006.39 1003.75 1006.39 1011.02
 45.80 57.90 1002.58 1005.23 1005.06 1009.20 1008.73 1005.12 1006.46 1008.63 1007.81 1006.86 1003.62 1006.64 1011.13
 43.40 56.20 1003.05 1006.19 1006.22 1009.70 1009.10 1005.54 1007.14 1009.21 1009.13 1007.44 1004.76 1008.26 1011.33
 45.00 56.10 1003.87 1006.90 1006.98 1010.17 1009.00 1005.55 1007.33 1009.23 1009.17 1007.89 1006.08 1008.59 1012.05
 43.00 55.90 1003.31 1006.44 1006.24 1009.96 1009.29 1005.83 1007.40 1009.25 1009.31 1007.65 1005.18 1007.43 1011.54
 44.10 55.80 1003.72 1006.74 1006.71 1010.04 1009.18 1005.76 1007.18 1008.93 1009.21 1008.08 1005.84 1008.11 1011.82
 45.50 55.50 1004.22 1007.70 1007.37 1010.29 1009.20 1005.47 1006.91 1009.17 1008.34 1008.64 1006.94 1009.15 1011.96
 43.70 55.40 1004.48 1007.37 1007.31 1010.49 1009.67 1006.23 1007.81 1009.50 1009.57 1008.54 1006.92 1008.58 1012.28
 45.30 55.00 1005.21 1008.38 1007.84 1010.67 1009.54 1005.79 1007.42 1009.59 1008.86 1009.06 1007.35 1009.41 1012.34
 52.40 53.60 1009.98 1010.66 1009.55 1012.81 1008.96 1007.02 1005.40 1009.44 1007.81 1010.34 1013.30 1013.21 1014.01
 53.70 53.70 1011.48 1014.57 1009.96 1012.73 1009.01 1006.82 1006.45 1009.24 1007.58 1010.17 1013.83 1015.02 1014.49
 52.80 53.30 1010.57 1011.28 1010.05 1012.77 1009.26 1006.27 1005.65 1009.17 1007.84 1009.80 1013.49 1013.80 1014.41
 52.10 53.00 1010.44 1011.29 1010.51 1012.84 1009.37 1006.87 1005.25 1009.45 1008.59 1013.75 1015.14 1014.12 1015.11
 51.60 51.90 1011.86 1012.21 1010.91 1013.01 1009.92 1007.23 1006.63 1010.09 1009.13 1014.30 1015.19 1014.72 1015.10
 53.10 52.40 1011.90 1012.57 1011.09 1013.49 1009.81 1006.96 1005.62 1009.58 1008.87 1010.69 1015.29 1014.86 1015.80
 53.60 52.10 1012.57 1013.05 1011.24 1013.55 1009.66 1007.55 1005.79 1009.12 1009.00 1011.11 1016.29 1015.23 1015.17
 56.40 52.30 1013.19 1013.33 1011.21 1013.02 1009.12 1006.84 1004.73 1008.89 1008.48 1010.55 1016.95 1015.32 1015.50
 59.90 51.90 1013.44 1013.78 1011.90 1013.06 1009.34 1007.32 1004.04 1008.95 1009.22 1010.93 1018.01 1016.16 1016.22
 53.40 51.50 1012.62 1013.50 1011.57 1013.37 1009.84 1007.52 1006.23 1009.25 1009.48 1011.53 1016.80 1015.58 1015.29
 55.00 51.10 1013.45 1014.38 1011.64 1013.69 1009.67 1007.58 1005.76 1009.65 1009.54 1012.62 1017.49 1015.80 1015.98
 55.10 51.80 1013.23 1013.63 1011.53 1013.58 1009.60 1007.49 1005.73 1009.26 1009.51 1011.52 1017.14 1015.71 1015.53
 56.50 51.40 1014.20 1014.87 1012.34 1014.15 1010.27 1007.88 1006.09 1009.28 1009.72 1012.37 1018.21 1016.41 1016.15
 57.40 51.50 1013.73 1014.69 1012.28 1013.71 1009.90 1007.80 1005.00 1009.03 1009.41 1011.77 1018.07 1016.60 1015.94
 55.60 51.00 1013.78 1014.83 1012.37 1014.09 1010.10 1008.02 1005.88 1009.10 1009.86 1012.80 1018.07 1016.15 1015.79
 60.90 51.10 1015.04 1015.60 1012.50 1013.27 1009.88 1007.66 1004.55 1008.65 1010.01 1012.37 1019.21 1017.12 1016.26
 59.60 50.80 1014.88 1015.70 1012.91 1013.04 1010.16 1007.25 1004.79 1009.23 1010.56 1012.26 1019.08 1016.21 1016.87
 42.60 53.50 1006.63 1009.76 1008.14 1011.23 1010.35 1006.96 1007.64 1009.42 1009.97 1010.10 1009.81 1010.36 1013.57
 43.30 53.30 1006.79 1010.06 1008.42 1011.32 1010.34 1006.80 1008.49 1010.33 1010.57 1011.12 1010.61 1011.05 1013.65
 45.70 53.30 1008.08 1011.11 1009.99 1011.99 1010.33 1006.70 1007.80 1010.37 1010.46 1011.82 1011.85 1012.56 1014.13
 43.40 52.90 1007.13 1011.59 1008.30 1011.54 1010.74 1007.19 1007.94 1010.27 1010.31 1012.36 1011.08 1011.60 1013.89
 44.10 53.20 1007.19 1010.34 1008.95 1010.62 1010.23 1006.61 1008.02 1009.92 1010.48 1011.37 1010.62 1011.87 1013.42
 45.00 53.20 1007.42 1010.97 1009.26 1011.50 1010.28 1006.75 1008.45 1010.39 1010.06 1011.47 1011.76 1011.76 1014.18
 45.10 52.80 1007.64 1011.38 1009.48 1011.72 1010.40 1006.81 1007.77 1010.27 1010.10 1011.92 1011.73 1012.21 1013.94
 56.80 60.70 1003.96 1005.24 1002.35 1005.74 1006.40 1005.35 1004.00 1005.86 1006.08 1005.23 1001.83 1004.20 1009.91
 58.40 60.60 1004.93 1006.40 1003.47 1006.46 1006.73 1005.18 1003.78 1006.24 1006.75 1004.51 1002.95 1004.97 1010.63
 56.50 60.40 1004.28 1005.35 1003.01 1006.65 1007.16 1005.30 1003.99 1006.15 1006.83 1004.53 1002.88 1004.75 1010.61
 56.80 59.60 1004.95 1005.64 1003.31 1007.78 1007.11 1005.76 1003.08 1006.24 1007.02 1007.93 1009.37 1005.75 1011.39
 56.20 58.80 1006.09 1005.68 1004.24 1007.98 1007.49 1006.01 1003.26 1006.87 1006.58 1006.41 1005.33 1006.91 1011.41
 58.90 58.50 1006.76 1006.69 1004.98 1007.66 1006.72 1005.42 1002.26 1006.88 1006.92 1006.91 1006.58 1007.23 1011.86
 54.70 58.10 1006.24 1006.50 1004.45 1007.98 1007.49 1004.99 1003.63 1007.27 1005.96 1007.48 1005.55 1007.83 1011.24
 56.50 58.50 1006.25 1005.96 1004.35 1008.43 1007.03 1006.19 1002.78 1006.83 1006.69 1007.38 1006.24 1007.54 1011.89
 56.40 58.00 1006.63 1006.26 1004.71 1008.28 1007.62 1006.11 1003.23 1007.47 1006.05 1007.87 1006.48 1007.90 1011.61
 57.80 58.10 1006.90 1006.52 1004.97 1008.34 1006.98 1006.06 1002.32 1007.11 1006.22 1007.72 1007.17 1008.19 1011.71
 58.70 57.80 1007.53 1006.77 1005.53 1008.58 1006.47 1003.40  988.36 1007.32 1006.45 1007.78 1007.80 1008.18 1011.44
 54.70 57.70 1007.09 1007.03 1005.42 1009.20 1007.86 1005.48 1003.49 1007.77 1006.82 1008.75 1007.50 1009.03 1012.64
 54.80 57.10 1006.73 1007.03 1005.72 1009.63 1007.68 1006.21 1003.32 1007.62 1006.24 1009.23 1008.09 1009.48 1012.52
 55.40 57.70 1006.18 1005.91 1004.77 1008.07 1007.17 1005.98 1002.79 1007.00 1005.90 1008.61 1007.17 1008.48 1012.09
 55.50 57.30 1006.85 1007.04 1005.46 1008.53 1007.49 1006.20 1003.20 1007.62 1006.01 1008.96 1006.91 1009.50 1012.03
 56.90 57.40 1006.82 1006.55 1005.23 1008.80 1006.92 1006.15 1002.38 1007.44 1005.75 1008.91 1007.80 1009.22 1012.47
 54.10 56.80 1007.04 1007.29 1005.99 1009.54 1007.95 1005.76 1003.96 1008.09 1006.04 1009.36 1007.94 1009.59 1012.31
 57.30 56.50 1007.77 1007.43 1006.64 1006.99 1002.48 1005.44 1001.12 1001.89 1003.50 1006.75 1007.46 1007.46 1006.87
 56.10 56.50 1007.52 1007.67 1006.47 1010.42 1007.45 1006.14 1002.70 1007.88 1005.82 1010.31 1010.04 1010.64 1013.16
 49.50 53.50 1008.76 1010.43 1009.25 1011.88 1009.58 1006.48 1006.47 1009.77 1008.34 1010.71 1011.47 1011.90 1013.58
 48.80 53.60 1008.42 1010.42 1009.10 1011.98 1009.75 1006.48 1006.70 1009.79 1008.37 1011.09 1011.01 1011.59 1013.42
 49.50 53.30 1009.14 1010.92 1009.48 1012.27 1009.46 1006.64 1006.47 1009.91 1008.40 1011.12 1012.43 1012.27 1013.93
 48.50 53.20 1009.08 1011.08 1009.62 1011.90 1010.03 1006.78 1006.81 1009.80 1008.57 1011.14 1011.85 1012.05 1013.77
 49.40 53.00 1009.41 1010.95 1010.26 1012.12 1009.60 1006.96 1006.90 1009.86 1008.78 1010.76 1012.94 1012.90 1014.15
 51.10 54.40 1008.73 1009.74 1008.15 1011.86 1008.85 1006.62 1005.30 1009.19 1007.71 1010.12 1012.16 1011.32 1014.27
 52.10 54.20 1009.46 1010.44 1009.01 1012.04 1008.88 1006.65 1005.50 1009.08 1007.41 1010.50 1011.62 1012.11 1013.62
 51.30 53.90 1009.57 1010.27 1008.99 1012.37 1009.07 1006.72 1005.61 1009.57 1008.13 1010.01 1012.40 1012.61 1014.08
 50.20 53.30 1009.74 1010.96 1010.00 1012.36 1009.57 1006.85 1006.27 1009.79 1008.62 1010.70 1013.09 1012.90 1014.35
 50.10 52.90 1009.38 1010.76 1008.86 1012.21 1009.29 1006.50 1006.26 1009.35 1008.83 1013.18 1012.50 1011.91 1013.63
 51.30 52.60 1010.86 1011.79 1010.59 1012.90 1009.60 1007.23 1006.46 1009.69 1008.73 1011.06 1014.21 1013.79 1014.49
 48.60 50.20 1011.65 1012.49 1011.46 1011.85 1010.10 1007.77 1007.32 1010.22 1011.30 1013.23 1013.99 1015.30 1015.33
 48.10 50.40 1011.18 1013.09 1010.96 1012.41 1010.49 1007.25 1007.30 1010.55 1011.73 1013.10 1014.94 1015.28 1014.97
 46.90 50.90 1010.99 1013.20 1010.97 1012.43 1010.77 1007.53 1008.41 1010.68 1010.60 1014.67 1015.07 1014.29 1014.69
 45.40 51.10 1010.36 1012.82 1010.70 1012.25 1010.76 1007.57 1009.00 1010.62 1010.90 1013.48 1014.39 1013.93 1015.12
 46.00 51.50 1009.52 1012.47 1010.77 1011.94 1010.68 1007.47 1007.23 1009.77 1010.56 1012.99 1013.85 1013.60 1014.75
 43.20 51.60 1008.89 1012.04 1009.70 1011.66 1010.91 1007.56 1008.20 1010.30 1011.90 1012.81 1013.03 1012.79 1014.22
 45.50 51.60 1009.48 1012.47 1010.44 1011.89 1010.50 1007.27 1007.86 1010.77 1010.96 1012.77 1013.83 1013.48 1014.99
 46.70 51.70 1009.56 1012.65 1010.88 1011.99 1010.29 1007.12 1007.38 1010.73 1010.24 1012.18 1013.91 1013.66 1015.11
 43.70 51.90 1008.68 1011.58 1009.61 1012.04 1010.97 1007.30 1008.22 1010.32 1011.18 1012.23 1012.88 1012.62 1014.21
 45.00 51.90 1008.85 1011.78 1009.87 1011.70 1010.21 1006.88 1008.92 1010.53 1010.56 1012.75 1013.72 1013.40 1014.90
 50.30 51.90 1010.72 1012.78 1010.82 1012.70 1009.78 1007.11 1006.64 1009.93 1009.43 1011.35 1014.78 1014.44 1015.37
 48.80 52.00 1010.50 1012.75 1011.27 1012.71 1010.25 1007.19 1007.42 1010.52 1009.52 1011.65 1014.34 1013.60 1014.72
 43.80 52.30 1008.22 1011.05 1009.34 1011.49 1010.34 1006.78 1007.96 1009.93 1010.76 1012.03 1012.05 1012.25 1013.76
 45.40 52.30 1008.94 1012.28 1010.11 1011.59 1010.71 1007.01 1008.26 1010.26 1010.21 1012.57 1012.79 1013.29 1014.18
 46.40 52.30 1009.20 1012.33 1010.70 1012.20 1010.36 1006.97 1007.88 1010.72 1010.20 1012.16 1013.32 1013.24 1014.63
 48.10 52.50 1009.31 1011.92 1010.83 1012.19 1010.49 1006.98 1007.18 1010.29 1009.35 1011.75 1013.05 1013.06 1014.30
 48.30 51.40 1010.45 1013.28 1011.29 1012.40 1010.36 1007.41 1007.30 1010.20 1009.71 1012.19 1014.74 1014.19 1014.41
 44.50 51.50 1008.99 1012.44 1010.40 1012.16 1010.58 1007.56 1008.12 1010.02 1011.14 1013.07 1013.67 1013.28 1014.71
 50.40 54.50 1008.72 1009.93 1008.72 1012.12 1009.40 1006.75 1006.31 1009.49 1008.01 1010.15 1010.92 1011.62 1013.62
 52.80 54.60 1008.62 1009.46 1008.28 1011.89 1008.54 1006.50 1004.83 1009.23 1007.13 1009.98 1011.53 1011.77 1013.44
 47.60 54.70 1006.44 1009.70 1008.26 1010.26 1009.45 1005.78 1006.64 1009.53 1008.65 1010.31 1007.89 1010.25 1012.49
 48.90 54.90 1006.40 1009.14 1007.79 1011.41 1009.18 1005.69 1006.20 1009.63 1008.03 1010.29 1009.04 1010.35 1012.92
 53.10 54.90 1008.54 1009.59 1007.93 1011.80 1008.66 1006.65 1004.53 1009.10 1006.86 1010.27 1011.33 1011.57 1013.75
 52.10 55.00 1007.92 1009.25 1007.97 1011.30 1008.73 1006.42 1004.87 1009.03 1007.15 1009.92 1010.55 1011.37 1013.51
 50.60 55.30 1007.32 1008.65 1007.44 1011.24 1008.61 1006.18 1005.50 1008.94 1007.47 1009.99 1009.28 1010.43 1013.02
 53.20 55.30 1008.51 1008.97 1007.71 1010.82 1008.60 1006.10 1004.33 1008.55 1006.74 1009.81 1010.02 1011.29 1013.02
 48.20 55.40 1005.88 1008.83 1007.40 1010.40 1009.50 1005.90 1006.27 1008.95 1008.21 1009.35 1007.81 1009.83 1012.49
 49.60 55.40 1006.41 1008.63 1007.31 1010.98 1008.85 1005.74 1005.65 1008.87 1007.45 1009.60 1008.75 1010.05 1012.95
 53.10 55.60 1007.73 1008.18 1007.08 1010.29 1008.13 1005.81 1004.12 1008.52 1006.39 1009.87 1009.06 1010.57 1012.59
 48.50 55.80 1005.37 1008.02 1006.41 1010.15 1009.43 1005.83 1006.10 1008.89 1007.61 1008.99 1007.56 1008.89 1012.48
 49.30 55.80 1006.41 1008.45 1006.78 1010.40 1009.14 1006.10 1005.90 1008.89 1007.47 1009.57 1007.41 1009.48 1012.01
 52.10 55.80 1006.82 1007.94 1006.59 1010.72 1008.37 1005.96 1004.33 1008.38 1006.41 1009.96 1009.11 1009.86 1014.24
 49.90 56.10 1005.37 1008.07 1006.12 1010.12 1008.59 1005.12 1005.21 1008.50 1006.95 1009.02 1007.24 1008.86 1012.14
 52.70 58.10 1005.59 1006.82 1004.97 1008.20 1007.98 1005.55 1005.19 1008.10 1007.19 1007.77 1004.94 1008.21 1011.21
 52.20 57.30 1006.10 1007.36 1005.37 1009.20 1008.44 1005.73 1004.27 1007.67 1006.54 1008.82 1006.26 1008.68 1011.82
 53.80 57.60 1006.11 1006.41 1004.69 1009.28 1007.41 1005.22 1003.91 1007.70 1006.55 1007.74 1005.47 1008.24 1010.94
 53.10 57.60 1006.22 1007.24 1004.88 1009.22 1008.37 1005.98 1004.12 1008.05 1006.57 1008.72 1005.50 1008.41 1011.01
 54.10 57.10 1005.83 1006.30 1004.79 1009.64 1006.52 1005.41 1003.28 1007.63 1006.30 1008.27 1006.79 1008.44 1011.40
 52.20 56.40 1007.08 1008.02 1006.42 1010.19 1008.67 1006.23 1004.75 1008.50 1006.76 1009.53 1008.07 1009.64 1012.57
 53.30 56.90 1007.07 1007.29 1006.02 1009.25 1007.90 1005.77 1004.19 1008.36 1006.65 1009.57 1007.74 1009.47 1012.10
 53.80 56.50 1006.87 1007.73 1006.14 1009.54 1008.22 1006.05 1003.40 1007.82 1007.42 1009.76 1008.24 1009.82 1012.26
 47.50 53.20 1008.49 1011.04 1009.72 1011.69 1009.86 1006.52 1007.26 1010.13 1009.20 1011.05 1012.03 1012.09 1013.84
 46.40 53.90 1007.44 1010.65 1009.61 1011.68 1010.18 1006.44 1007.69 1010.29 1009.73 1011.20 1011.20 1011.44 1014.85
 48.80 54.00 1007.66 1010.26 1009.17 1011.75 1010.00 1006.34 1006.65 1009.14 1007.86 1010.02 1010.09 1011.71 1012.90
 49.70 54.20 1007.95 1010.23 1008.41 1011.79 1009.07 1005.83 1006.08 1009.20 1007.67 1010.18 1010.47 1011.35 1013.10
 48.30 54.30 1007.16 1009.84 1008.32 1011.33 1009.78 1006.15 1006.70 1009.61 1008.61 1010.87 1009.89 1010.72 1013.26
 46.70 54.50 1006.54 1009.81 1008.74 1011.20 1009.83 1005.97 1007.17 1009.38 1010.57 1010.23 1009.39 1010.68 1014.49
