 54.90 56.30  993.67  993.90  993.31  997.75  995.15  993.73  991.16  995.97  994.17  997.35  996.56  996.75 1000.11
 56.60 56.10  981.29  981.18  981.28  984.74  982.96  982.25  978.97  983.96  981.18  984.26  984.11  984.63  987.54
 56.90 55.80  988.97  988.04  988.50  991.04  989.01  987.95  985.26  989.86  987.28  990.63  991.12  991.32  993.86
 58.60 55.90  978.89  977.69  978.66  981.73  979.46  979.19  975.13  981.05  978.25  981.66  981.21  982.03  984.97
 57.90 55.70  966.16  964.33  965.95  969.83  967.04  966.95  964.01  968.97  966.79  968.41  968.57  968.73  971.94
 54.30 55.40  994.68  995.68  995.84  998.16  996.59  993.39  993.34  997.01  998.85  999.32 1000.58  997.57 1001.88
 53.80 55.20  991.94  992.15  991.99  995.53  993.07  991.38  989.44  993.99  991.46  995.88  994.81  995.24  997.73
 55.50 55.40  984.78  984.70  985.02  987.70  986.00  984.66  981.98  986.77  984.20  986.83  987.72  988.07  990.54
 56.60 55.40  973.15  972.31  973.40  976.95  974.25  973.56  970.54  975.79  977.41  973.08  976.47  976.31  979.35
 55.40 55.10  996.70  996.28  996.08  998.90  996.29  995.15  992.10  997.18  994.73  997.41  999.38  999.78 1001.78
 56.90 54.90  991.64  994.37  992.61  991.51  991.74  988.60  988.06  991.94  992.60  995.48  996.51  993.37  996.96
 54.90 54.10  994.04  993.24  993.19  996.72  992.80  991.79  989.47  994.16  992.93  995.32  998.16  998.18  999.04
 52.80 54.60  969.70  969.70  970.62  974.32  972.18  970.85  969.53  973.71  970.92  971.40  973.34  972.94  976.30
 54.20 54.00  965.73  965.12  966.40  969.55  967.12  965.78  964.41  968.13  970.76  967.52  969.32  968.86  971.51
 55.40 54.60  994.29  994.23  993.85  996.61  994.36  992.39  990.08  995.32  992.12  995.03  997.96  997.50  999.68
 56.80 54.40  992.49  991.90  991.58  994.19  991.24  989.95  987.24  992.20  990.13  992.84  995.63  995.66  997.01
 59.40 54.40  943.02  942.06  944.91  948.52  945.77  946.34  942.15  945.67  945.62  946.21  947.34  946.05  950.91
 57.40 53.90  941.13  940.77  943.00  946.02  943.85  944.12  940.96  945.96  943.12  943.90  946.21  944.13  948.76
 56.00 53.60  993.76  993.54  993.00  995.21  992.25  990.41  988.28  992.85  991.14  993.06  996.90  996.84  998.02
 55.10 53.10  967.08  967.22  968.18  971.31  968.45  966.72  965.04  969.21  967.09  972.26  972.08  971.06  973.30
 58.30 53.90  938.86  938.24  940.33  943.26  941.16  942.05  938.51  943.69  940.55  942.11  943.50  941.69  946.91
 55.90 52.90  988.60  988.70  988.22  990.00  987.40  985.45  983.48  988.08  987.57  987.90  992.85  992.16  993.49
 57.50 52.80  918.86  921.64  920.49  917.70  920.40  916.57  913.34  919.82  919.84  916.03  918.24  918.86  920.27
 55.80 52.80  966.73  966.99  967.77  969.78  967.58  966.28  964.46  969.66  971.56  970.78  972.90  971.13  973.23
 56.60 52.70  979.60  981.46  978.83  983.29  980.47  973.53  969.16  974.25  976.55  981.21  985.24  981.52  980.81
 58.30 52.60  949.37  949.71  951.30  953.62  951.36  951.31  948.00  952.67  951.31  951.90  954.78  952.57  956.27
 57.40 52.20  946.84  947.26  948.51  948.39  948.66  947.49  944.95  949.38  947.63  946.04  950.92  948.32  952.93
 58.20 51.90  968.35  968.81  969.06  971.31  968.52  967.56  966.05  969.60  967.91  970.12  973.57  971.48  974.41
 47.10 56.10  984.40  986.22  986.00  989.57  989.65  986.34  987.44  989.69  987.83  987.71  985.48  986.60  991.59
 47.50 55.50  982.30  984.43  984.46  988.02  987.03  983.69  985.03  987.42  986.17  986.54  984.29  985.78  989.79
 46.30 55.20  988.25  991.07  990.60  993.83  993.32  989.69  991.43  993.57  992.82  992.09  990.76  992.12  995.93
 46.60 54.90  983.59  986.32  986.03  989.19  988.32  984.53  986.19  987.84  987.21  987.89  985.66  987.07  990.49
 47.60 55.10  990.96  993.41  992.24  995.85  994.48  991.23  992.51  994.90  993.47  994.49  992.76  993.98  997.52
 48.30 59.90  978.81  981.19  980.10  985.56  986.07  983.78  985.09  986.17  983.50  983.30  979.10  981.38  987.99
 48.90 59.40  975.39  978.12  976.59  981.34  982.58  979.88  981.23  982.36  980.28  979.73  975.22  977.81  983.93
 47.90 58.80  984.01  986.44  985.30  989.73  990.40  987.68  989.05  990.58  988.94  987.99  983.41  986.45  991.76
 49.70 58.50  983.22  985.07  983.12  987.71  989.02  986.41  987.48  989.07  986.87  986.67  982.71  985.19  990.06
 47.10 58.30  981.96  984.51  984.05  988.45  988.63  985.71  987.35  989.06  987.24  986.82  982.74  985.01  990.87
 48.40 58.30  986.79  989.50  988.37  992.87  992.98  989.98  991.23  993.15  991.96  991.44  987.49  990.37  995.14
 49.10 58.00  977.77  979.70  979.79  983.64  983.81  981.19  982.50  984.56  983.41  982.71  978.63  981.41  986.18
 49.90 58.10  981.90  983.29  982.20  986.64  987.04  984.48  984.83  986.77  986.01  985.50  981.74  984.30  989.12
 47.90 57.40  990.18  992.83  991.85  995.88  995.75  992.44  993.86  995.71  994.81  994.09  990.72  993.84  997.78
 49.90 57.60  987.51  989.21  988.37  991.82  992.32  989.24  989.93  992.35  991.27  991.29  987.51  990.81  994.45
 47.30 56.90  991.02  993.68  992.53  996.34  996.36  993.02  994.53  996.27  995.28  994.54  991.65  994.31  998.45
 50.80 59.30  977.08  978.26  976.71  981.64  982.99  980.55  981.00  982.56  980.24  979.87  975.47  978.92  983.81
 52.20 59.30  982.63  983.35  982.05  986.97  987.54  985.22  985.57  987.16  985.78  985.01  982.14  984.65  990.10
 50.90 58.90  983.27  984.53  984.94  989.54  988.66  986.10  986.78  988.44  989.30  987.36  984.66  986.46  992.00
 51.60 58.40  981.64  982.32  981.76  987.51  986.61  984.22  984.10  986.50  985.50  985.58  983.10  984.31  989.74
 51.50 57.80  981.91  982.34  981.83  986.38  986.03  983.68  983.36  986.18  984.81  985.46  982.22  984.17  989.02
 50.00 57.10  983.91  985.19  984.77  988.82  988.48  985.74  986.01  988.70  987.17  987.69  984.71  986.81  991.26
 51.10 56.90  981.57  988.63  981.86  985.97  987.34  983.95  985.03  986.27  984.08  985.96  982.51  984.11  988.52
 51.10 56.20  979.47  985.63  979.85  984.61  985.20  981.44  980.22  985.88  981.44  983.47  985.23  982.09  989.09
 47.60 60.70  989.59  991.89  990.64  996.17  997.57  994.56  995.99  996.86  993.75  993.48  989.90  991.22  999.02
 52.60 60.50  979.85  980.89  979.07  984.37  985.23  983.43  984.40  984.80  983.39  982.11  978.67  981.05  987.51
 54.30 60.30  978.40  978.63  977.31  982.23  983.02  981.93  981.57  982.89  983.15  979.82  977.03  979.28  985.68
 55.00 59.90  980.42  980.52  979.34  983.68  984.66  983.53  982.56  984.41  984.01  982.03  979.03  981.57  987.17
 54.50 59.60  981.23  981.14  980.06  985.56  985.42  983.70  983.00  985.11  984.94  982.91  980.60  982.55  988.53
 54.70 59.00  981.33  981.08  980.10  987.42  985.25  983.65  982.43  985.21  985.54  985.01  986.26  982.72  988.48
 46.60 56.40  990.19  993.34  992.48  996.57  995.72  992.36  994.13  995.95  994.93  994.21  992.27  994.05  998.63
 48.70 57.00  986.17  988.19  987.41  991.37  991.20  988.17  988.93  991.09  989.95  989.95  986.99  989.36  993.68
 49.00 56.40  988.83  990.61  989.88  993.77  993.03  990.05  990.50  993.25  991.71  992.50  989.98  991.97  995.81
 43.20 54.60  987.98  990.49  990.46  993.32  992.92  989.31  991.92  992.92  993.05  991.39  990.30  991.93  995.55
 43.80 54.40  982.37  985.43  984.90  987.74  987.64  984.37  985.74  987.91  987.24  986.36  985.10  985.55  990.63
 43.30 54.10  981.10  983.98  983.36  986.52  986.45  983.01  984.09  986.26  986.12  985.20  983.96  983.94  988.81
 45.10 54.20  980.93  984.09  983.81  986.30  985.89  982.24  984.73  986.43  985.16  985.19  984.06  984.87  988.58
 45.90 54.20  990.18  993.44  992.67  995.43  994.47  990.89  992.49  994.91  994.27  994.28  993.78  994.06  997.90
 44.40 53.90  982.94  986.08  985.48  988.01  987.36  984.08  984.77  987.14  986.91  986.99  985.45  986.85  989.76
 43.80 56.30  993.47  996.42  996.80 1000.01  999.26  996.13  998.13  999.68  999.58  997.44  995.18  997.54 1001.72
 44.00 56.30  983.28  986.55  986.78  990.11  990.20  986.95  988.73  990.46  989.78  987.86  984.90  987.09  992.10
 43.40 56.70  989.66  992.38  993.13  996.33  996.19  993.11  995.01  996.12  996.10  993.88  991.13  993.43  998.27
 44.50 56.80  987.80  990.66  991.35  994.97  994.32  991.05  993.03  994.91  992.19  992.49  989.67  991.91  996.79
 45.40 56.80  992.29  994.07  995.00  998.41  997.44  994.74  996.63  998.49  997.80  996.32  993.41  996.18 1000.33
 45.20 57.10  988.86  991.50  990.21  993.07  993.82  991.62  991.54  995.56  991.44  992.01  987.78  989.23  996.08
 46.60 57.70  980.65  983.12  982.38  986.73  987.10  983.82  986.12  987.02  986.43  984.64  981.67  983.87  989.41
 45.80 57.90  985.42  988.20  988.14  992.39  992.45  989.12  990.70  992.69  991.49  990.00  986.50  988.93  994.39
 43.40 56.20  990.72  993.91  994.04  997.63  997.40  993.99  995.76  997.66  997.28  995.29  992.44  995.70  999.48
 45.00 56.10  988.30  991.39  991.55  994.96  994.22  990.85  992.97  994.66  994.23  992.57  990.48  992.73  996.82
 43.00 55.90  986.80  989.98  989.93  993.81  993.61  990.36  992.13  993.69  993.43  991.38  988.67  990.23  995.40
 44.10 55.80  986.96  990.05  990.14  993.66  993.26  989.96  991.68  993.24  993.12  991.57  989.04  990.64  995.41
 45.50 55.50  988.47  991.99  991.81  994.90  994.29  990.64  992.40  994.24  993.23  993.15  991.15  992.83  996.55
 43.70 55.40  985.10  989.95  990.34  992.12  990.98  987.81  988.81  990.24  990.22  990.54  987.02  987.82  993.15
 45.30 55.00  981.10  984.11  983.97  987.11  986.67  983.05  984.71  986.63  985.75  985.34  983.18  984.88  988.75
 52.40 53.60  998.00  998.41  997.99 1001.37  997.79  996.05  994.56  998.54  996.69  998.90 1001.55 1001.24 1002.58
 53.70 53.70  984.66  988.02  984.81  987.00  984.77  982.40  982.07  984.72  982.59  984.33  987.37  987.00  988.78
 52.80 53.30  994.90  995.24  994.86  997.80  994.61  992.75  991.43  994.91  993.28  995.83  998.35  998.09  999.45
 52.10 53.00 1000.06 1000.69 1000.47 1002.98  999.68  997.48  995.87 1000.08  998.94 1003.79 1004.92 1003.72 1005.14
 51.60 51.90 1002.64 1002.85 1002.10 1004.36 1001.41  998.92  998.36 1001.79 1000.64 1005.55 1006.27 1005.54 1006.39
 53.10 52.40  995.70  996.28  995.70  998.35  994.99  992.58  991.24  995.17  994.12  995.52  999.81  998.51 1000.55
 53.60 52.10  994.00  994.62  993.84  996.34  992.89  991.15  989.51  992.82  992.30  993.74  998.57  996.58  998.02
 56.40 52.30  982.72  983.10  982.64  984.83  981.68  980.24  978.02  982.12  981.13  982.33  987.81  985.04  987.32
 59.90 51.90  970.10  970.62  970.92  972.82  970.15  969.31  965.99  970.79  970.17  970.29  976.38  972.63  975.97
 53.40 51.50 1003.65 1004.57 1003.15 1005.14 1001.73  999.78  998.35 1001.36 1001.38 1003.36 1008.22 1006.78 1006.98
 55.00 51.10  997.29  998.31  996.45  998.73  995.09  993.33  991.58  995.47  995.00  997.53 1002.20  999.60 1001.03
 55.10 51.80  997.55  998.10  996.89  999.14  995.47  993.62  991.98  995.53  995.44  997.47 1002.17 1000.03 1001.06
 56.50 51.40  996.64  997.48  995.90  997.93  994.46  992.48  990.74  993.95  994.01  996.05 1001.64  998.99  999.99
 57.40 51.50  984.76  986.12  985.24  983.55  983.86  979.15  978.83  982.25  983.53  981.43  987.71  984.14  987.79
 55.60 51.00  994.67  995.85  994.40  996.40  992.85  991.16  989.12  992.36  992.67  994.88  999.89  997.02  998.13
 60.90 51.10  973.97  974.79  973.80  975.25  972.84  971.75  968.68  972.71  973.11  974.03  979.75  976.03  978.19
 59.60 50.80  978.31  979.31  978.50  979.10  977.14  975.13  972.77  977.17  977.66  978.76  983.89  980.05  982.83
 42.60 53.50  990.17  993.29  991.91  995.15  994.70  991.42  992.23  993.82  994.16  993.91  993.19  993.42  997.45
 43.30 53.30  974.28  977.52  976.32  979.58  979.50  976.12  978.03  979.70  979.34  979.09  977.87  977.48  981.85
 45.70 53.30  978.94  981.64  981.14  983.64  982.78  979.24  981.39  983.67  982.58  983.54  982.67  983.07  985.69
 43.40 52.90  981.47  984.59  982.96  985.53  986.12  982.43  984.31  985.61  986.17  986.86  985.66  985.49  988.77
 44.10 53.20  983.82  986.92  985.85  988.48  988.03  984.55  986.87  988.52  988.68  989.02  987.80  988.44  991.21
 45.00 53.20  982.49  982.78  984.01  989.09  985.30  981.83  982.64  985.27  984.87  983.13  990.14  981.35  989.07
 45.10 52.80  979.01  982.63  981.16  983.78  983.24  979.81  981.49  983.73  983.21  983.71  983.51  983.31  986.49
 56.80 60.70  981.10  981.77  980.44  983.99  985.13  984.63  983.60  985.34  985.45  983.49  979.71  981.89  988.25
 58.40 60.60  980.80  981.41  980.17  983.39  984.18  983.25  982.21  980.59  984.49  981.64  979.50  981.26  987.67
 56.50 60.40  977.43  977.68  977.12  981.09  982.05  980.86  979.91  981.92  981.93  978.86  976.70  978.42  985.02
 56.80 59.60  976.23  975.92  975.44  980.07  980.07  979.36  977.09  980.11  980.13  980.07  980.58  977.35  983.78
 56.20 58.80  989.98  989.18  988.76  992.63  992.60  991.47  988.89  992.42  991.76  991.45  989.74  991.20  996.16
 58.90 58.50  947.27  945.73  947.76  951.04  951.54  951.37  948.96  953.01  951.75  950.24  948.58  949.05  955.33
 54.70 58.10  976.64  976.40  976.29  980.03  980.29  978.42  977.26  980.83  978.81  979.51  976.99  979.06  983.37
 56.50 58.50  985.68  985.11  984.78  990.27  988.16  987.77  984.54  988.53  989.07  989.18  987.72  987.62  992.68
 56.40 58.00  984.24  983.57  983.36  987.14  986.98  985.96  983.27  987.45  985.50  986.61  984.86  986.18  990.52
 57.80 58.10  977.26  976.51  976.76  980.41  979.78  979.38  975.99  980.64  979.07  979.77  978.55  979.40  983.84
 58.70 57.80  975.49  974.29  974.99  978.37  977.02  975.17  965.56  978.69  977.06  977.55  976.95  977.09  981.14
 54.70 57.70  986.78  986.32  986.06  989.99  989.18  987.22  985.45  989.65  988.21  989.51  987.90  989.24  993.45
 54.80 57.10  989.58  989.58  989.31  993.35  991.85  990.86  987.99  992.28  990.48  992.96  991.46  992.49  996.27
 55.40 57.70  984.77  984.20  984.35  987.81  987.47  986.68  983.79  987.91  986.26  988.35  986.48  987.48  991.91
 55.50 57.30  993.61  993.55  992.82  996.02  995.32  994.29  991.40  995.80  993.87  995.76  994.12  996.37  999.54
 56.90 57.40  987.22  986.60  986.50  990.26  988.83  988.62  984.88  989.85  987.74  990.48  988.79  990.00  993.90
 54.10 56.80  994.25  994.27  993.73  997.41  996.11  994.17  992.49  996.60  994.27  997.24  995.54  996.91 1000.21
 57.30 56.50  964.77  963.79  965.23  966.45  962.64  967.07  963.23  963.31  963.90  966.20  964.57  965.06  966.06
 56.10 56.50  988.19  987.93  987.93  992.05  989.58  988.69  985.40  990.51  988.03  991.40  991.20  991.40  994.81
 49.50 53.50  995.15  999.76  999.70  999.99  999.87  995.90  995.06  997.90  999.63  997.43  999.41  999.81 1003.64
 48.80 53.60  990.17  991.65  991.31  994.44  992.48  989.56  989.99  993.09  991.19  993.36  992.97  993.24  995.84
 49.50 53.30  983.26  984.44  984.33  987.60  985.22  982.83  982.92  985.98  984.20  986.44  986.91  986.35  989.14
 48.50 53.20  995.44  997.54  996.79  999.25  997.58  994.68  994.74  997.45  996.17  998.23  998.80  998.80 1001.08
 49.40 53.00 1003.48 1004.94 1004.55 1006.50 1004.08 1001.56 1001.56 1004.53 1003.28 1005.17 1007.14 1007.01 1008.52
 51.10 54.40  988.35  988.90  988.50  992.51  989.83  988.16  986.86  990.79  988.78  990.71  992.20  991.05  994.77
 52.10 54.20  977.08  977.33  977.72  981.11  978.66  977.12  976.17  979.59  977.32  979.34  979.89  979.81  982.78
 51.30 53.90  994.68  995.08  994.62  998.27  995.20  993.10  992.14  996.14  994.31  995.72  997.81  997.76  999.91
 50.20 53.30  991.84  992.68  992.65  995.33  992.81  990.42  990.02  993.38  991.92  993.73  995.47  995.01  997.24
 50.10 52.90  999.26 1001.23  999.83 1003.32 1000.55  997.46  997.72 1000.68 1000.10 1001.33 1003.30 1002.56 1004.70
 51.30 52.60  999.29 1000.32  999.73 1002.24  999.12  996.70  996.29  999.15  998.30  999.86 1003.11 1002.47 1003.78
 48.60 50.20 1008.33 1009.23 1008.39 1008.84 1007.16 1004.85 1004.41 1007.30 1008.35 1010.12 1010.83 1012.09 1012.30
 48.10 50.40 1006.59 1008.59 1006.42 1007.92 1006.13 1002.95 1003.12 1006.55 1007.60 1008.87 1010.36 1010.75 1010.75
 46.90 50.90 1004.64 1006.71 1004.71 1006.24 1004.75 1001.56 1002.57 1004.72 1004.52 1008.41 1008.70 1007.72 1008.48
 45.40 51.10  984.35  987.77  986.47  988.32  987.49  984.58  985.15  987.60  987.40  989.25  989.73  988.61  990.70
 46.00 51.50  998.86 1001.60 1000.24 1001.56 1000.60  997.44  997.44  999.83 1000.56 1002.54 1003.18 1002.94 1004.65
 43.20 51.60  988.30  991.95  990.13  992.29  992.04  988.84  989.68  991.99  992.84  993.29  993.07  992.33  994.82
 45.50 51.60  984.67  986.88  985.72  987.46  986.77  983.68  985.64  987.23  986.95  988.55  988.96  987.95  990.48
 46.70 51.70 1005.75 1008.85 1007.21 1008.38 1006.79 1003.64 1003.95 1007.28 1006.70 1008.55 1010.18 1009.86 1011.46
 43.70 51.90  987.87  991.19  989.55  992.18  991.62  988.09  989.17  991.38  991.64  992.23  992.40  991.58  994.31
 45.00 51.90  982.98  985.60  984.27  986.42  985.62  982.41  984.94  986.27  985.89  987.22  987.81  986.86  989.54
 50.30 51.90 1001.49 1003.33 1001.94 1003.96 1001.19  998.69  998.41 1001.55 1000.85 1002.62 1005.88 1005.22 1006.53
 48.80 52.00 1005.55 1007.79 1006.58 1008.10 1005.72 1002.73 1003.02 1006.10 1004.98 1006.97 1009.56 1008.74 1010.08
 43.80 52.30  980.90  984.43  983.13  985.59  985.12  981.74  983.09  984.83  985.27  985.91  985.33  984.75  987.81
 45.40 52.30  983.53  986.85  985.48  987.32  987.10  983.75  984.96  986.75  986.31  988.09  987.69  987.65  989.80
 46.40 52.30  970.47  973.51  973.58  975.61  974.87  971.63  973.39  975.21  974.21  976.37  975.50  974.87  977.90
 48.10 52.50  997.84 1000.30  999.79 1001.30  999.89  996.48  996.85  999.90  998.67 1000.85 1001.82 1001.65 1003.38
 48.30 51.40  996.64  999.02  997.50  998.84  997.19  994.37  994.89  997.75  996.94  999.09 1001.27  999.89 1001.35
 44.50 51.50  990.33  993.29  991.66  993.63  992.59  989.67  991.29  993.13  993.33  994.82  995.35  994.07  996.53
 50.40 54.50  998.74  999.63  998.96 1002.56  999.97  997.51  997.18 1000.37  998.64 1000.55 1001.06 1001.59 1004.01
 52.80 54.60  969.70  969.70  970.62  974.32  972.18  970.85  969.53  973.71  970.92  971.40  973.34  972.94  976.30
 47.60 54.70  977.51  979.54  979.58  982.81  981.78  978.54  980.19  982.80  980.92  981.83  979.55  980.84  984.37
 48.90 54.90  986.70  988.62  988.33  992.19  990.33  987.22  987.92  990.98  989.25  990.92  989.38  988.83  993.72
 53.10 54.90  984.28  984.78  984.52  988.63  986.02  984.44  982.64  987.14  984.30  986.71  987.56  987.37  990.60
 52.10 55.00  992.57  993.64  993.23  996.73  994.55  992.44  991.05  995.25  992.95  995.37  995.63  996.17  998.96
 50.60 55.30  984.90  984.98  985.09  989.12  987.02  984.98  984.57  988.04  985.96  987.78  986.69  987.42  990.99
 53.20 55.30  998.14  998.37  997.74 1000.96  998.96  996.66  994.99  999.14  997.11  999.93  999.92 1000.98 1003.15
 48.20 55.40  989.79  992.00  991.46  994.73  994.27  990.82  991.31  994.03  992.82  993.54  991.70  993.44  996.77
 49.60 55.40  990.18  993.67  992.36  996.54  993.30  990.49  991.86  995.32  993.99  995.75  994.61  995.66  998.36
 53.10 55.60  993.12  993.27  992.99  996.42  994.58  992.52  991.00  995.35  992.88  995.74  994.86  996.05  998.73
 48.50 55.80  989.91  991.84  991.09  994.97  994.62  991.43  991.73  994.51  992.84  993.79  992.07  993.12  997.36
 49.30 55.80  991.19  992.74  991.92  995.67  994.76  992.01  991.97  994.96  993.14  994.81  992.38  994.17  997.35
 52.10 55.80  994.99  995.87  995.35  999.57  997.38  995.17  993.69  997.71  995.60  998.77  997.71  998.28 1002.96
 49.90 56.10  986.05  987.82  986.99  991.20  990.13  987.02  987.31  990.62  988.54  990.07  987.93  989.18  993.28
 52.70 58.10  984.04  984.11  983.83  987.26  987.47  985.45  985.41  988.26  986.83  986.68  983.61  986.53  990.34
 52.20 57.30  982.26  982.93  982.37  986.12  986.24  983.35  982.76  986.11  984.41  984.80  983.03  984.90  989.11
 53.80 57.60  982.12  981.60  981.08  985.83  984.92  983.21  982.15  985.53  983.85  984.17  981.59  983.91  987.57
 53.10 57.60  975.49  975.98  975.49  980.07  979.97  978.14  976.59  980.45  978.26  979.25  975.79  977.97  982.00
 54.10 57.10  984.16  984.26  984.04  989.05  987.59  985.76  983.87  988.18  986.26  987.57  985.73  986.95  990.88
 52.20 56.40  985.15  985.65  985.32  989.30  988.25  986.19  984.92  988.65  986.42  988.59  986.75  987.89  991.72
 53.30 56.90  986.37  986.20  986.17  989.63  988.73  986.99  985.63  989.77  987.57  989.63  987.67  988.95  992.52
 53.80 56.50  989.49  990.02  989.46  993.03  992.11  990.31  987.81  992.23  991.36  993.11  991.37  992.57  995.80
 47.50 53.20  995.90  998.08  997.42  999.57  998.00  994.80  995.62  998.39  997.28  998.78  999.53  999.41 1001.67
 46.40 53.90  980.53  985.34  986.01  986.24  985.78  982.60  982.54  984.84  985.85  984.88  984.12  984.38  989.06
 48.80 54.00  996.84  999.10  998.61 1001.30  999.74  996.39  996.76  999.16  997.64  999.62  999.39 1000.81 1002.46
 49.70 54.20  998.67 1000.56  999.26 1002.61 1000.19  997.14  997.49 1000.45  998.83 1001.04 1001.18 1001.90 1004.05
 48.30 54.30  990.92  992.88  992.26  995.48  994.17  990.88  991.56  994.49  994.40  994.90  993.81  994.16  997.58
 46.70 54.50  993.97  996.97  996.31  998.94  997.93  994.22  995.42  997.55  998.53  997.86  996.84  997.89 1002.09
