 54.90 56.30 1040.14 1043.72 1036.46 1024.04 1021.77 1018.02 1016.05 1019.72 1023.80 1035.24 1036.41 1041.62 1021.94
 56.60 56.10 1040.76 1043.48 1037.05 1024.48 1021.84 1017.37 1016.41 1019.04 1024.40 1033.96 1036.46 1041.84 1022.45
 56.90 55.80 1040.10 1043.32 1037.02 1024.82 1021.72 1017.36 1016.43 1019.53 1024.99 1033.52 1036.76 1042.77 1023.28
 58.60 55.90 1041.93 1043.80 1037.76 1024.97 1021.23 1017.59 1016.06 1019.32 1024.80 1033.30 1036.30 1044.57 1022.34
 57.90 55.70 1040.90 1043.14 1036.88 1025.05 1021.65 1018.46 1015.75 1019.59 1025.32 1034.37 1036.96 1044.14 1022.18
 54.30 55.40 1029.67 1032.92 1027.18 1024.88 1018.56 1016.95 1018.17 1016.07 1019.68 1027.97 1033.65 1030.76 1018.89
 53.80 55.20 1039.42 1044.27 1036.95 1023.94 1022.51 1016.67 1016.43 1019.17 1023.20 1035.45 1036.32 1040.65 1022.40
 55.50 55.40 1038.79 1043.41 1035.38 1024.24 1022.12 1017.45 1016.72 1019.89 1024.07 1034.72 1035.99 1041.12 1022.72
 56.60 55.40 1037.69 1042.17 1036.65 1026.72 1021.99 1019.58 1016.27 1019.39 1024.39 1027.30 1035.90 1040.41 1022.73
 55.40 55.10 1040.55 1043.84 1036.94 1024.54 1022.67 1017.29 1016.57 1019.20 1024.42 1034.81 1035.95 1041.46 1022.66
 56.90 54.90 1041.28 1043.20 1036.65 1024.54 1021.61 1017.46 1016.48 1019.91 1024.52 1034.49 1036.08 1042.17 1022.94
 54.90 54.10 1040.99 1044.20 1036.80 1024.90 1022.73 1017.48 1016.01 1019.86 1023.64 1035.48 1035.15 1041.90 1021.77
 52.80 54.60 1039.95 1044.67 1036.00 1024.40 1022.77 1017.65 1016.97 1019.68 1023.03 1036.24 1036.71 1040.70 1022.75
 54.20 54.00 1040.60 1044.03 1036.55 1024.19 1022.81 1017.03 1016.84 1020.15 1022.98 1028.22 1036.19 1041.23 1023.00
 55.40 54.60 1040.38 1044.15 1037.09 1024.22 1022.69 1017.13 1016.96 1019.83 1023.87 1034.55 1035.83 1041.59 1022.84
 56.80 54.40 1041.53 1043.77 1036.90 1024.86 1022.29 1017.45 1016.34 1019.80 1023.99 1034.67 1035.88 1042.54 1023.02
 59.40 54.40 1033.48 1035.00 1037.38 1025.22 1020.79 1018.03 1016.00 1018.07 1025.14 1027.85 1035.68 1037.83 1022.85
 57.40 53.90 1035.98 1037.96 1035.46 1025.56 1023.15 1018.14 1016.72 1018.93 1024.98 1034.45 1036.36 1033.18 1023.72
 56.00 53.60 1041.22 1044.09 1036.69 1025.28 1022.85 1017.53 1016.59 1019.83 1023.62 1034.94 1035.59 1038.95 1023.49
 55.10 53.10 1035.16 1043.04 1034.89 1025.62 1019.03 1016.96 1017.51 1018.18 1023.06 1034.73 1035.22 1041.57 1023.02
 58.30 53.90 1034.26 1035.01 1027.71 1024.61 1022.72 1016.79 1016.07 1016.78 1019.27 1028.10 1033.04 1033.06 1020.42
 55.90 52.90 1041.47 1043.83 1037.07 1025.70 1022.94 1017.46 1016.42 1019.86 1023.38 1028.67 1035.53 1042.81 1023.58
 57.50 52.80 1034.42 1042.82 1034.37 1025.98 1018.43 1017.99 1015.70 1017.74 1024.67 1034.47 1035.14 1043.96 1022.92
 55.80 52.80 1040.83 1043.19 1036.40 1025.61 1022.65 1017.34 1016.11 1019.74 1023.28 1033.69 1035.41 1042.11 1023.37
 56.60 52.70 1036.53 1043.87 1036.94 1026.64 1022.84 1018.42 1016.46 1019.64 1024.05 1035.09 1035.81 1043.64 1024.03
 58.30 52.60 1041.32 1041.55 1037.61 1025.71 1022.90 1018.33 1016.12 1020.23 1024.58 1033.65 1035.53 1042.83 1023.58
 57.40 52.20 1038.78 1037.18 1036.74 1026.29 1022.61 1016.50 1016.76 1019.97 1024.04 1029.47 1036.39 1040.70 1024.72
 58.20 51.90 1041.24 1041.47 1037.36 1025.13 1021.80 1016.95 1015.25 1019.73 1024.91 1032.71 1035.80 1042.73 1023.78
 47.10 56.10 1037.99 1044.74 1034.48 1023.44 1022.20 1017.13 1017.21 1021.14 1021.52 1037.39 1038.14 1036.96 1021.42
 47.50 55.50 1038.30 1045.24 1034.47 1023.61 1022.49 1016.87 1016.75 1020.91 1021.56 1038.09 1038.33 1037.43 1021.63
 46.30 55.20 1038.18 1045.39 1034.55 1023.74 1023.24 1016.88 1017.44 1021.47 1021.91 1038.47 1038.51 1037.51 1022.08
 46.60 54.90 1038.59 1045.36 1035.07 1024.20 1022.96 1017.46 1017.36 1021.59 1022.08 1038.38 1038.63 1037.78 1022.29
 47.60 55.10 1039.00 1045.23 1035.14 1024.18 1022.79 1017.78 1017.37 1021.44 1021.74 1037.86 1038.22 1037.92 1022.33
 48.30 59.90 1036.36 1041.99 1033.99 1024.11 1019.90 1017.71 1016.63 1020.69 1022.31 1035.31 1038.90 1038.81 1020.21
 48.90 59.40 1037.39 1042.69 1034.54 1024.92 1019.84 1017.96 1016.92 1020.75 1022.79 1035.94 1038.89 1040.04 1020.49
 47.90 58.80 1037.04 1042.92 1034.88 1024.32 1020.26 1017.68 1016.79 1021.36 1022.49 1036.98 1039.21 1038.47 1020.88
 49.70 58.50 1037.34 1043.78 1034.56 1024.43 1020.46 1017.81 1016.82 1020.64 1022.91 1036.39 1038.39 1039.08 1021.05
 47.10 58.30 1037.42 1044.68 1035.05 1024.18 1021.33 1018.03 1017.24 1021.76 1022.71 1037.70 1039.83 1037.39 1021.45
 48.40 58.30 1037.76 1044.09 1035.08 1024.32 1021.00 1017.68 1016.87 1021.29 1022.59 1036.87 1038.97 1038.37 1021.12
 49.10 58.00 1038.22 1043.78 1034.78 1023.81 1020.90 1017.56 1016.44 1021.01 1022.68 1036.87 1038.39 1038.63 1021.15
 49.90 58.10 1037.82 1043.84 1035.21 1024.87 1020.91 1017.39 1016.94 1020.87 1022.85 1036.40 1038.14 1039.58 1021.27
 47.90 57.40 1038.00 1044.21 1034.77 1023.61 1021.88 1016.95 1016.78 1021.02 1021.80 1037.11 1038.46 1037.10 1021.01
 49.90 57.60 1038.46 1044.28 1035.58 1024.56 1021.18 1018.20 1016.82 1021.07 1023.57 1037.37 1038.63 1039.33 1021.78
 47.30 56.90 1038.01 1044.72 1034.93 1023.43 1022.05 1016.91 1017.14 1021.60 1021.65 1037.68 1038.56 1036.67 1021.47
 50.80 59.30 1038.12 1041.98 1035.00 1025.49 1020.34 1017.86 1017.14 1020.46 1023.32 1035.46 1038.40 1041.21 1020.93
 52.20 59.30 1037.89 1042.77 1034.62 1025.29 1019.55 1018.14 1016.74 1019.73 1023.81 1034.89 1037.84 1042.15 1020.95
 50.90 58.90 1038.49 1043.33 1034.65 1024.79 1019.94 1017.88 1016.81 1020.14 1023.13 1035.99 1038.04 1040.20 1020.91
 51.60 58.40 1038.71 1043.60 1035.10 1025.36 1020.77 1017.79 1016.78 1020.27 1023.46 1035.60 1037.99 1041.11 1021.07
 51.50 57.80 1039.17 1044.41 1035.09 1024.85 1021.65 1017.45 1016.61 1020.09 1023.47 1036.10 1037.67 1040.59 1021.51
 50.00 57.10 1038.82 1044.61 1035.17 1024.28 1022.00 1017.20 1016.77 1020.56 1022.81 1036.88 1037.96 1038.95 1021.51
 51.10 56.90 1038.39 1044.69 1034.98 1024.22 1021.59 1017.51 1016.72 1020.25 1023.49 1036.95 1037.48 1038.90 1021.93
 51.10 56.20 1039.16 1044.47 1035.23 1023.75 1021.68 1017.18 1016.88 1020.23 1023.29 1036.84 1037.54 1039.30 1021.90
 47.60 60.70 1035.71 1040.28 1033.64 1024.13 1019.17 1017.52 1016.77 1020.59 1022.13 1024.55 1039.26 1038.65 1019.38
 52.60 60.50 1037.71 1041.21 1033.84 1025.05 1018.91 1017.96 1016.05 1019.25 1023.58 1033.44 1037.38 1042.89 1020.24
 54.30 60.30 1029.87 1040.49 1033.86 1025.37 1018.35 1017.79 1015.98 1018.45 1023.70 1032.74 1036.70 1035.85 1020.01
 55.00 59.90 1037.39 1040.49 1033.94 1025.34 1018.71 1017.79 1015.81 1018.22 1023.75 1032.77 1036.45 1043.70 1019.83
 54.50 59.60 1037.73 1041.63 1034.12 1025.32 1018.73 1017.63 1015.92 1018.52 1023.89 1033.39 1036.75 1042.94 1020.94
 54.70 59.00 1030.37 1041.75 1034.77 1025.92 1019.30 1017.92 1016.47 1019.09 1024.65 1033.44 1036.91 1037.24 1020.52
 46.60 56.40 1037.76 1045.02 1034.10 1023.03 1022.34 1016.62 1016.79 1021.23 1021.53 1037.51 1038.19 1036.84 1021.54
 48.70 57.00 1038.66 1044.65 1034.69 1023.81 1021.85 1016.82 1016.85 1020.88 1022.10 1037.12 1038.17 1038.09 1021.20
 49.00 56.40 1038.96 1045.34 1035.38 1023.91 1022.42 1017.28 1017.18 1021.00 1022.55 1037.60 1038.26 1038.55 1021.97
 43.20 54.60 1037.01 1044.60 1033.44 1023.06 1022.33 1017.15 1016.69 1021.51 1021.69 1038.55 1038.69 1035.52 1021.30
 43.80 54.40 1036.66 1044.54 1033.81 1023.52 1022.46 1017.41 1017.21 1021.49 1021.65 1038.68 1039.08 1035.80 1021.74
 43.30 54.10 1035.04 1044.23 1033.37 1023.25 1022.56 1017.28 1016.79 1021.47 1021.23 1038.13 1038.67 1035.21 1021.53
 45.10 54.20 1037.71 1045.12 1034.34 1023.81 1022.81 1017.22 1017.06 1021.32 1020.96 1038.46 1038.60 1036.96 1022.01
 45.90 54.20 1035.06 1045.39 1033.85 1023.44 1022.85 1016.51 1016.47 1020.67 1021.54 1038.55 1037.79 1037.55 1022.01
 44.40 53.90 1037.38 1044.94 1034.57 1024.18 1022.83 1017.62 1017.60 1021.84 1021.46 1038.77 1039.23 1036.69 1022.48
 43.80 56.30 1036.52 1044.38 1033.84 1022.76 1022.31 1017.38 1016.91 1022.02 1020.14 1038.38 1039.62 1034.54 1020.86
 44.00 56.30 1034.18 1043.89 1033.73 1022.79 1022.10 1017.55 1017.04 1022.27 1021.16 1038.09 1039.24 1034.58 1020.96
 43.40 56.70 1036.46 1043.98 1033.69 1022.52 1022.02 1017.45 1016.87 1022.16 1020.25 1038.08 1039.63 1034.32 1020.65
 44.50 56.80 1036.50 1044.49 1034.01 1022.89 1022.12 1017.07 1017.02 1022.21 1021.07 1038.09 1039.22 1035.43 1021.00
 45.40 56.80 1037.04 1044.62 1034.38 1023.12 1021.98 1017.06 1016.97 1021.99 1021.19 1038.04 1039.29 1035.85 1021.19
 45.20 57.10 1036.81 1044.06 1033.94 1022.70 1021.84 1017.11 1016.89 1022.06 1021.36 1037.77 1039.34 1035.27 1020.82
 46.60 57.70 1037.15 1044.14 1033.92 1022.97 1021.23 1016.50 1017.22 1021.12 1021.24 1037.51 1038.32 1036.03 1020.96
 45.80 57.90 1036.77 1044.40 1034.45 1023.31 1021.36 1017.45 1017.21 1022.08 1021.58 1037.73 1039.51 1036.08 1021.12
 43.40 56.20 1034.09 1043.85 1033.64 1022.85 1021.99 1017.94 1017.14 1022.47 1020.46 1038.25 1039.38 1034.45 1021.03
 45.00 56.10 1037.19 1044.99 1034.26 1023.34 1022.60 1017.35 1017.10 1022.06 1021.55 1038.69 1039.03 1036.03 1021.45
 43.00 55.90 1036.03 1043.79 1033.62 1022.97 1021.88 1017.88 1017.33 1022.59 1020.97 1038.42 1039.63 1034.36 1021.12
 44.10 55.80 1036.43 1044.41 1033.83 1023.10 1022.23 1017.49 1017.14 1021.94 1021.08 1038.47 1039.01 1035.19 1021.12
 45.50 55.50 1037.75 1045.29 1034.22 1023.22 1022.85 1017.16 1017.14 1021.56 1021.79 1038.11 1038.78 1036.52 1021.54
 43.70 55.40 1036.82 1044.73 1034.20 1023.55 1022.31 1017.78 1017.48 1022.39 1021.36 1038.86 1039.56 1035.28 1021.69
 45.30 55.00 1037.70 1044.73 1034.45 1023.67 1022.67 1017.29 1017.34 1021.78 1021.61 1038.28 1038.80 1036.15 1021.78
 52.40 53.60 1039.99 1044.67 1036.14 1024.79 1022.79 1017.70 1016.86 1019.73 1022.68 1036.25 1036.14 1041.30 1023.28
 53.70 53.70 1040.08 1044.86 1036.50 1024.58 1022.70 1017.63 1016.92 1019.49 1021.28 1035.83 1032.98 1041.91 1022.89
 52.80 53.30 1039.18 1044.63 1036.03 1024.80 1021.97 1017.86 1016.74 1019.29 1023.03 1036.21 1036.64 1041.16 1022.68
 52.10 53.00 1035.00 1034.75 1034.26 1024.72 1018.46 1017.71 1016.45 1018.37 1022.15 1036.52 1035.45 1032.19 1022.54
 51.60 51.90 1035.72 1043.59 1034.67 1024.51 1022.25 1017.58 1016.42 1018.62 1023.16 1035.73 1035.48 1040.34 1023.29
 53.10 52.40 1039.65 1043.90 1035.12 1025.04 1022.53 1017.79 1016.46 1018.92 1022.76 1035.86 1035.28 1041.12 1023.26
 53.60 52.10 1039.96 1043.57 1035.91 1025.41 1022.47 1017.65 1016.08 1019.37 1023.20 1035.31 1035.74 1041.36 1022.79
 56.40 52.30 1040.55 1042.49 1035.99 1025.92 1022.14 1017.53 1015.69 1018.99 1023.24 1033.99 1034.77 1042.36 1023.45
 59.90 51.90 1040.90 1041.89 1036.92 1025.89 1021.83 1017.95 1015.63 1018.96 1024.36 1033.12 1036.16 1043.58 1023.69
 53.40 51.50 1039.56 1042.83 1035.13 1025.23 1022.60 1017.85 1016.02 1018.95 1023.24 1035.06 1034.99 1040.92 1022.64
 55.00 51.10 1040.39 1042.85 1035.28 1026.03 1022.50 1017.62 1015.09 1019.06 1023.32 1034.26 1034.67 1041.95 1023.22
 55.10 51.80 1035.88 1042.82 1035.77 1025.83 1022.78 1017.64 1015.83 1019.32 1023.48 1035.01 1035.18 1041.93 1023.54
 56.50 51.40 1041.15 1042.54 1036.06 1026.28 1022.77 1017.71 1015.74 1019.36 1023.46 1034.19 1034.82 1042.39 1023.19
 57.40 51.50 1041.04 1041.86 1036.56 1026.15 1022.56 1017.72 1015.72 1019.28 1023.47 1033.76 1035.22 1043.15 1023.64
 55.60 51.00 1040.46 1042.27 1035.93 1025.91 1022.47 1017.61 1015.46 1019.50 1023.33 1034.19 1034.70 1041.90 1023.17
 60.90 51.10 1041.08 1040.75 1036.56 1026.00 1021.31 1017.35 1014.64 1018.66 1024.14 1032.66 1036.11 1043.57 1023.75
 59.60 50.80 1040.15 1041.29 1035.65 1026.41 1021.44 1017.44 1015.02 1019.05 1023.17 1033.23 1035.37 1043.05 1023.39
 42.60 53.50 1036.64 1044.36 1033.58 1023.51 1022.11 1016.72 1016.77 1021.32 1021.11 1038.39 1039.02 1035.57 1021.80
 43.30 53.30 1036.46 1044.11 1033.56 1023.79 1023.10 1017.13 1016.86 1021.35 1021.88 1037.98 1038.83 1035.83 1021.44
 45.70 53.30 1038.26 1045.37 1034.42 1024.51 1022.85 1017.48 1017.13 1021.26 1022.06 1038.74 1038.12 1038.05 1022.82
 43.40 52.90 1036.94 1043.96 1033.57 1023.76 1022.44 1016.93 1017.52 1021.03 1021.29 1037.68 1038.71 1035.91 1022.13
 44.10 53.20 1037.39 1044.46 1033.18 1023.17 1022.96 1016.96 1016.73 1020.42 1021.78 1038.49 1038.89 1036.59 1021.82
 45.00 53.20 1037.85 1044.44 1034.06 1024.07 1022.92 1017.02 1016.99 1020.90 1021.53 1038.29 1038.31 1036.91 1022.35
 45.10 52.80 1037.47 1044.22 1033.98 1024.11 1022.60 1016.77 1016.84 1020.60 1021.54 1037.71 1038.00 1036.87 1022.38
 56.80 60.70 1038.28 1039.32 1033.46 1025.48 1018.73 1017.68 1015.19 1017.64 1024.05 1031.92 1035.61 1045.68 1019.29
 58.40 60.60 1040.05 1039.98 1035.02 1026.38 1018.40 1017.96 1015.25 1017.44 1024.53 1031.41 1035.97 1036.56 1019.80
 56.50 60.40 1030.44 1040.40 1034.32 1025.69 1018.27 1017.96 1015.40 1017.80 1024.21 1032.17 1035.98 1036.63 1020.25
 56.80 59.60 1029.09 1032.24 1033.81 1025.86 1018.00 1017.62 1015.82 1017.54 1024.28 1032.26 1035.73 1037.85 1019.67
 56.20 58.80 1038.31 1042.14 1035.23 1025.96 1019.55 1017.90 1016.15 1018.53 1024.68 1033.21 1036.37 1043.87 1020.90
 58.90 58.50 1029.97 1040.09 1035.99 1025.86 1019.30 1017.80 1015.09 1017.87 1024.95 1031.27 1035.35 1045.02 1020.38
 54.70 58.10 1038.91 1042.39 1034.83 1025.10 1020.25 1017.76 1016.33 1019.05 1024.34 1033.84 1036.69 1042.94 1020.98
 56.50 58.50 1030.61 1042.66 1036.06 1025.81 1020.32 1017.94 1016.02 1018.52 1024.55 1033.56 1036.16 1038.93 1021.29
 56.40 58.00 1031.39 1042.27 1035.84 1025.86 1020.29 1017.74 1016.25 1018.85 1024.83 1033.36 1036.55 1043.23 1021.14
 57.80 58.10 1039.31 1042.09 1036.51 1025.72 1020.21 1017.61 1015.94 1018.96 1024.69 1032.51 1035.69 1044.97 1021.02
 58.70 57.80 1040.58 1042.52 1036.39 1025.69 1019.84 1017.80 1015.41 1018.82 1025.04 1032.04 1035.76 1039.79 1021.43
 54.70 57.70 1039.70 1044.10 1036.11 1025.38 1021.35 1018.10 1016.29 1020.73 1024.75 1035.24 1037.08 1042.93 1021.88
 54.80 57.10 1039.31 1043.75 1035.77 1025.26 1021.47 1017.49 1016.65 1018.94 1024.08 1034.81 1036.26 1042.29 1021.78
 55.40 57.70 1039.27 1042.58 1036.17 1025.44 1021.21 1017.33 1016.35 1019.59 1024.21 1033.93 1036.04 1042.85 1020.81
 55.50 57.30 1039.72 1042.97 1036.34 1025.33 1020.89 1017.52 1014.53 1018.84 1024.76 1034.11 1036.45 1042.33 1021.41
 56.90 57.40 1040.33 1042.88 1036.89 1025.45 1020.60 1017.48 1016.13 1018.58 1024.56 1033.12 1035.96 1044.03 1021.29
 54.10 56.80 1039.54 1043.84 1035.61 1024.62 1021.44 1017.58 1016.44 1019.66 1024.18 1035.07 1036.86 1041.62 1021.81
 57.30 56.50 1039.90 1042.49 1036.95 1023.97 1021.69 1017.44 1014.60 1019.31 1024.41 1033.59 1035.73 1042.77 1021.35
 56.10 56.50 1040.28 1043.91 1035.23 1024.42 1021.97 1017.32 1015.99 1019.49 1024.27 1033.89 1035.97 1042.04 1022.29
 49.50 53.50 1039.02 1044.79 1034.73 1024.37 1022.94 1017.72 1016.86 1020.13 1021.96 1037.18 1036.90 1038.97 1022.54
 48.80 53.60 1038.35 1044.86 1034.83 1024.52 1023.42 1017.89 1017.14 1020.38 1022.03 1037.28 1036.93 1038.81 1022.59
 49.50 53.30 1039.63 1044.39 1034.71 1024.47 1022.81 1017.59 1015.44 1019.84 1022.19 1036.88 1036.53 1039.33 1022.77
 48.50 53.20 1038.99 1044.97 1034.65 1024.49 1022.58 1018.10 1016.98 1020.12 1021.85 1037.33 1036.94 1038.96 1022.70
 49.40 53.00 1039.15 1044.72 1034.55 1024.32 1022.89 1017.81 1016.94 1019.67 1022.36 1037.19 1036.74 1039.42 1022.63
 51.10 54.40 1039.59 1044.95 1035.33 1024.27 1022.90 1017.95 1017.07 1019.63 1022.09 1035.83 1036.82 1040.08 1022.91
 52.10 54.20 1039.85 1044.18 1035.59 1024.77 1022.78 1017.65 1017.15 1019.91 1022.81 1036.17 1036.72 1040.25 1023.08
 51.30 53.90 1038.98 1044.86 1035.51 1024.44 1023.02 1017.50 1016.95 1019.73 1022.29 1036.83 1036.20 1040.48 1022.76
 50.20 53.30 1039.33 1044.74 1034.96 1024.50 1023.13 1017.78 1016.84 1019.77 1022.35 1036.95 1036.43 1040.04 1022.84
 50.10 52.90 1035.40 1044.14 1034.72 1024.35 1022.24 1017.62 1016.34 1020.94 1022.19 1037.07 1036.42 1039.72 1022.69
 51.30 52.60 1039.25 1044.35 1035.13 1024.46 1022.24 1017.75 1016.46 1019.31 1022.86 1036.40 1036.05 1040.09 1023.08
 48.60 50.20 1036.76 1042.25 1031.67 1022.74 1022.11 1016.98 1014.50 1017.40 1022.01 1035.42 1034.53 1037.63 1022.00
 48.10 50.40 1037.15 1042.49 1031.53 1023.59 1021.78 1016.96 1014.87 1017.62 1021.39 1035.96 1034.30 1037.87 1022.00
 46.90 50.90 1035.00 1043.13 1032.61 1023.56 1021.77 1016.97 1015.77 1018.92 1022.13 1036.29 1036.06 1037.69 1022.21
 45.40 51.10 1035.19 1043.82 1032.85 1023.53 1022.33 1017.04 1015.79 1019.20 1021.41 1036.59 1036.30 1037.37 1022.39
 46.00 51.50 1037.91 1043.95 1033.06 1023.78 1022.80 1016.83 1016.21 1019.40 1021.89 1037.00 1036.69 1037.36 1022.21
 43.20 51.60 1035.92 1042.10 1032.24 1023.16 1021.81 1016.91 1015.89 1019.47 1021.21 1037.20 1037.71 1035.97 1021.61
 45.50 51.60 1037.04 1044.15 1033.06 1023.75 1022.56 1017.02 1016.14 1019.53 1021.67 1037.56 1036.54 1037.30 1022.35
 46.70 51.70 1037.84 1043.66 1033.44 1024.03 1022.49 1017.35 1015.95 1019.34 1022.10 1037.02 1036.54 1031.29 1022.39
 43.70 51.90 1036.63 1043.11 1032.75 1023.47 1021.99 1016.69 1015.99 1020.02 1020.76 1037.17 1037.20 1035.78 1021.96
 45.00 51.90 1035.39 1044.01 1033.05 1023.57 1022.51 1016.82 1015.92 1019.56 1021.46 1037.07 1037.15 1037.16 1022.31
 50.30 51.90 1038.50 1039.47 1034.33 1024.22 1021.33 1017.29 1015.79 1018.82 1022.84 1036.36 1035.96 1039.65 1020.52
 48.80 52.00 1038.66 1044.37 1034.46 1024.76 1022.64 1017.53 1016.11 1019.57 1022.72 1036.80 1036.22 1039.22 1023.05
 43.80 52.30 1036.78 1042.92 1032.67 1023.50 1021.71 1016.74 1016.11 1020.08 1021.14 1037.20 1037.58 1035.55 1021.76
 45.40 52.30 1038.04 1044.00 1033.24 1023.54 1022.15 1016.92 1016.76 1019.67 1022.06 1037.36 1037.58 1036.89 1021.86
 46.40 52.30 1038.33 1044.45 1033.97 1024.41 1022.96 1017.47 1016.49 1020.15 1022.15 1027.55 1037.22 1038.00 1022.67
 48.10 52.50 1038.82 1044.84 1034.46 1024.54 1022.82 1017.89 1016.82 1019.86 1022.15 1037.39 1036.77 1039.08 1022.58
 48.30 51.40 1037.61 1043.32 1033.36 1023.99 1022.14 1017.41 1015.69 1019.02 1022.32 1036.01 1035.83 1037.94 1022.57
 44.50 51.50 1035.31 1029.25 1032.64 1023.59 1021.44 1017.07 1015.95 1019.51 1021.60 1036.97 1036.81 1039.78 1022.05
 50.40 54.50 1039.43 1045.24 1035.56 1024.72 1022.99 1017.68 1017.33 1020.34 1022.52 1037.25 1037.26 1040.01 1022.87
 52.80 54.60 1039.95 1044.67 1036.00 1024.40 1022.77 1017.65 1016.97 1019.68 1023.03 1036.24 1036.71 1040.70 1022.75
 47.60 54.70 1035.20 1044.83 1035.15 1024.35 1022.74 1017.35 1016.96 1021.28 1021.71 1038.31 1038.37 1037.67 1021.54
 48.90 54.90 1038.78 1045.48 1035.13 1024.33 1022.79 1017.25 1017.06 1020.65 1021.88 1037.85 1037.57 1038.88 1022.28
 53.10 54.90 1040.27 1044.77 1036.51 1024.48 1023.09 1017.58 1016.72 1019.96 1023.42 1035.95 1037.57 1041.09 1022.83
 52.10 55.00 1039.86 1044.25 1035.79 1023.75 1022.64 1017.98 1017.10 1019.81 1023.17 1036.29 1037.10 1039.82 1022.17
 50.60 55.30 1039.44 1045.22 1035.68 1024.36 1023.13 1017.64 1017.13 1020.31 1023.03 1037.20 1037.87 1039.60 1022.45
 53.20 55.30 1039.78 1044.27 1036.02 1024.12 1021.99 1017.32 1016.64 1019.41 1023.36 1035.79 1036.47 1040.10 1021.80
 48.20 55.40 1038.74 1045.59 1034.91 1023.74 1022.82 1017.41 1017.54 1020.76 1021.82 1038.10 1038.34 1038.33 1021.93
 49.60 55.40 1038.51 1045.42 1035.28 1024.31 1021.86 1017.25 1016.81 1020.44 1022.35 1037.31 1037.48 1038.89 1022.14
 53.10 55.60 1039.39 1043.99 1036.08 1023.79 1022.25 1017.27 1016.41 1019.64 1023.58 1035.74 1036.52 1040.25 1022.18
 48.50 55.80 1038.62 1044.51 1034.36 1023.41 1022.66 1016.91 1017.40 1020.52 1021.72 1037.06 1037.33 1037.57 1021.35
 49.30 55.80 1034.68 1044.80 1035.43 1024.27 1022.61 1017.25 1017.54 1020.76 1022.35 1037.43 1037.95 1038.43 1022.21
 52.10 55.80 1039.70 1044.30 1035.76 1023.69 1022.20 1017.31 1016.71 1019.61 1022.91 1035.88 1036.59 1039.74 1021.92
 49.90 56.10 1038.72 1045.04 1035.19 1023.85 1023.54 1016.69 1016.83 1020.48 1022.29 1037.13 1037.43 1038.66 1021.91
 52.70 58.10 1039.48 1043.51 1035.78 1025.35 1020.82 1018.24 1016.65 1020.29 1024.38 1035.91 1038.17 1041.97 1021.66
 52.20 57.30 1039.38 1044.23 1034.93 1025.13 1021.46 1017.64 1016.94 1020.46 1023.76 1036.07 1037.52 1040.97 1021.58
 53.80 57.60 1039.76 1044.21 1035.42 1024.97 1020.41 1017.47 1016.09 1019.53 1024.37 1035.22 1037.14 1042.48 1021.45
 53.10 57.60 1039.63 1043.91 1035.33 1025.34 1020.68 1017.53 1016.85 1020.00 1023.83 1035.50 1036.97 1041.72 1021.70
 54.10 57.10 1039.46 1039.33 1034.56 1024.55 1020.48 1016.89 1016.15 1019.17 1023.61 1035.15 1036.10 1041.80 1021.09
 52.20 56.40 1039.36 1044.53 1035.34 1024.52 1022.06 1017.72 1017.05 1020.20 1023.67 1036.11 1037.22 1039.79 1022.15
 53.30 56.90 1039.57 1043.66 1035.57 1024.60 1021.64 1017.93 1016.50 1019.55 1024.42 1035.80 1037.24 1041.09 1021.91
 53.80 56.50 1039.89 1043.40 1035.50 1024.50 1021.45 1017.75 1016.67 1019.57 1023.75 1036.33 1036.42 1040.73 1022.13
 47.50 53.20 1038.80 1045.24 1034.24 1024.02 1022.93 1017.25 1016.36 1019.95 1021.58 1037.83 1036.97 1038.73 1022.34
 46.40 53.90 1038.66 1045.11 1034.74 1024.33 1023.22 1017.54 1017.29 1021.40 1022.19 1038.91 1038.70 1037.75 1022.66
 48.80 54.00 1038.27 1044.77 1035.18 1024.66 1022.66 1017.55 1017.31 1020.78 1022.14 1037.09 1037.76 1038.49 1022.73
 49.70 54.20 1038.93 1045.03 1035.10 1024.56 1022.82 1017.75 1016.44 1019.97 1021.70 1036.98 1037.03 1039.30 1022.06
 48.30 54.30 1035.22 1045.75 1035.04 1024.26 1023.08 1017.37 1017.26 1020.78 1021.63 1038.10 1037.74 1038.52 1022.34
 46.70 54.50 1038.22 1040.59 1035.01 1024.25 1022.65 1017.58 1017.41 1021.49 1021.84 1027.54 1038.18 1033.78 1022.43
