 54.90 56.30    6.68    6.24    5.85    5.96    6.45    5.70    4.73    4.82    5.38    6.36    6.41    6.42    5.28
 56.60 56.10    6.25    6.03    5.57    5.80    6.64    5.68    4.85    5.24    5.81    6.54    6.35    6.18    4.64
 56.90 55.80    4.83    4.75    4.65    4.95    5.24    4.77    4.08    3.99    4.43    5.16    5.03    4.85    3.27
 58.60 55.90    4.15    3.98    3.71    4.10    4.50    3.88    2.98    3.10    3.70    4.34    4.23    4.20    4.99
 57.90 55.70    5.60    5.67    5.51    5.91    6.58    5.74    4.79    4.66    5.11    5.87    5.63    5.47    5.94
 54.30 55.40    4.73    4.49    4.27    4.38    4.84    4.07    3.57    3.86    4.15    4.77    4.77    4.71    4.39
 53.80 55.20    6.28    5.97    5.70    6.10    6.71    5.57    4.62    4.73    4.98    5.91    5.90    5.92    4.63
 55.50 55.40    6.08    5.65    5.31    5.45    5.80    5.21    4.45    4.59    5.04    5.84    5.80    5.76    4.29
 56.60 55.40    3.79    3.66    3.50    3.44    3.58    3.23    2.82    2.83    3.27    3.70    3.74    3.69    5.32
 55.40 55.10    5.21    4.85    4.67    5.25    5.77    4.97    4.27    4.17    4.52    5.34    5.20    5.08    3.58
 56.90 54.90    2.94    3.13    2.95    3.22    3.50    2.98    2.37    2.19    2.50    3.12    2.88    2.80    3.17
 54.90 54.10    3.60    3.72    3.40    3.92    4.67    4.02    3.36    3.33    3.52    4.00    3.71    3.55 9999.00
 52.80 54.60    8.54    8.38    8.01    7.94    8.09    7.15    6.44    6.57    7.21    8.25    8.37    8.42    6.66
 54.20 54.00    5.81    5.62    5.31    5.27    5.73    4.95    4.25    4.33    4.82    5.71    5.72    5.52    5.92
 55.40 54.60    4.57    4.28    4.04    4.43    4.77    3.97    3.47    3.53    3.71    4.68    4.54    4.38    5.37
 56.80 54.40    4.32    4.16    4.14    4.42    4.64    4.06    3.48    3.53    4.03    4.71    4.48    4.22    3.23
 59.40 54.40    3.71    3.90    3.86    4.83    5.10    4.50    3.87    3.89    4.41    4.81    4.21    3.84    4.50
 57.40 53.90    2.60    2.84    2.72    2.99    3.03    2.97    2.45    2.28    2.63    2.95    2.75    2.32    1.66
 56.00 53.60    5.05    4.71    4.48    5.00    4.96    4.41    3.94    3.73    4.04    4.91    4.96    4.84    4.81
 55.10 53.10    6.89    6.84    6.17    6.21    6.97    6.21    5.63    5.69    6.32    6.98    6.75    6.65    4.55
 58.30 53.90    4.58    5.04    4.91    5.74    5.80    5.29    4.52    4.31    4.85    5.06    4.82    4.48    3.19
 55.90 52.90    4.80    4.48    4.17    4.72    5.15    4.62    3.94    3.88    4.26    4.59    4.55    4.56    4.95
 57.50 52.80    3.40    3.69    3.96    4.36    4.41    4.02    3.43    3.37    3.82    3.95    3.72    3.18    3.45
 55.80 52.80    7.52    7.31    6.93    6.99    7.37    6.57    6.14    6.08    6.65    7.28    7.12    7.18    6.99
 56.60 52.70    2.41    2.38    2.30    2.58    2.56    2.32    1.86    1.90    2.13    2.26    2.33    2.26    2.27
 58.30 52.60    5.78    6.29    5.90    7.14    7.57    6.97    6.43    6.30    6.79    6.98    6.65    5.89    6.06
 57.40 52.20    3.81    4.22    4.30    4.50    4.34    3.98    3.57    3.33    3.54    3.76    3.88    3.54    2.77
 58.20 51.90    5.53    6.11    5.68    6.24    6.62    6.22    5.97    5.76    5.93    6.01    6.05    5.54    4.78
 47.10 56.10    8.09    7.75    7.47    7.41    7.64    6.98    6.19    6.59    7.19    7.98    8.11    8.27    6.98
 47.50 55.50    7.95    7.68    7.24    7.41    7.46    6.89    6.11    6.47    7.23    7.80    7.75    7.88    6.60
 46.30 55.20    7.73    7.52    7.11    6.95    6.86    6.15    5.41    5.68    6.36    7.03    7.17    7.52    6.51
 46.60 54.90    6.77    6.48    6.16    6.07    6.22    5.63    5.05    5.19    5.71    6.24    6.26    6.59    4.78
 47.60 55.10    6.03    5.77    5.50    5.65    5.24    4.56    3.87    4.04    4.66    5.51    5.70    5.93    5.45
 48.30 59.90    6.07    6.26    6.38    6.45    6.72    6.21    5.48    5.58    5.81    6.67    6.46    6.47    5.55
 48.90 59.40    6.64    6.76    6.74    6.83    7.34    6.95    6.10    6.17    6.51    7.21    7.11    6.92    6.69
 47.90 58.80    4.77    4.75    4.76    5.00    5.21    4.75    4.16    4.23    4.58    5.16    5.12    5.02    5.06
 49.70 58.50    6.43    6.31    6.11    6.43    6.76    6.20    5.55    5.73    5.94    6.58    6.56    6.63    5.76
 47.10 58.30    7.00    7.09    6.86    6.87    7.18    6.60    5.95    6.11    6.30    6.86    7.09    7.11    8.05
 48.40 58.30    5.85    5.84    5.63    5.93    6.35    5.91    5.23    5.50    5.64    6.10    6.03    6.03    5.82
 49.10 58.00    5.26    5.35    5.24    5.39    5.81    5.44    4.82    4.89    5.04    5.54    5.54    5.41    5.11
 49.90 58.10    6.57    6.35    6.33    6.53    7.15    6.68    5.82    6.17    6.37    6.80    6.75    6.66    5.55
 47.90 57.40    5.50    5.19    4.99    4.95    5.24    4.57    4.04    4.33    4.78    5.52    5.75    5.74    4.50
 49.90 57.60    5.42    5.38    5.27    5.32    5.71    5.18    4.43    4.64    4.90    5.55    5.85    5.67    6.91
 47.30 56.90    6.05    5.77    5.54    5.83    6.04    5.43    4.82    5.02    5.36    5.80    5.98    6.11    5.34
 50.80 59.30    6.04    6.03    6.05    6.35    6.91    6.21    5.73    5.99    6.18    6.60    6.22    6.32    6.00
 52.20 59.30    5.48    5.38    5.63    5.84    6.13    5.17    4.35    4.59    5.04    5.69    5.53    5.68    5.23
 50.90 58.90    5.09    5.00    5.13    5.22    5.61    4.94    4.25    4.46    4.83    5.43    5.39    5.41    5.56
 51.60 58.40    5.94    5.71    5.62    5.47    6.05    5.14    4.34    4.91    5.26    5.98    6.07    6.17    6.19
 51.50 57.80    5.80    5.57    5.55    5.73    6.33    5.77    5.14    5.28    5.53    6.12    6.00    5.92    5.29
 50.00 57.10    7.44    7.28    6.97    7.04    7.68    7.06    6.28    6.55    6.91    7.50    7.55    7.59    5.06
 51.10 56.90    7.12    6.91    6.90    6.96    7.16    6.33    5.65    6.01    6.53    7.23    7.27    7.30    7.64
 51.10 56.20    7.57    7.36    7.11    7.19    7.87    6.82    5.97    6.15    6.52    7.44    7.48    7.56    6.68
 47.60 60.70    4.71    4.78    4.95    5.24    5.69    5.36    4.73    4.68    4.97    5.48    5.21    5.07    4.77
 52.60 60.50    4.34    4.48    4.76    4.70    4.84    4.43    3.93    3.84    3.99    4.22    4.08    4.35 9999.00
 54.30 60.30    6.12    6.00    6.22    6.37    6.51    6.06    5.28    5.41    5.92    6.47    6.12    6.21    6.31
 55.00 59.90    5.88    5.81    6.09    6.33    6.81    6.15    5.25    5.36    5.54    5.91    5.66    5.94    4.45
 54.50 59.60    5.73    5.82    6.07    6.16    6.59    6.09    5.26    5.43    5.54    6.17    5.74    5.75    5.09
 54.70 59.00    5.14    4.88    5.10    5.43    6.08    5.40    4.89    5.05    5.30    5.73    5.37    5.35    5.43
 46.60 56.40    7.88    7.65    7.26    7.17    7.30    6.79    6.05    6.56    7.22    7.93    7.86    8.16    6.85
 48.70 57.00    6.25    5.82    5.53    5.60    5.82    5.17    4.39    4.79    5.41    6.27    6.36    6.43    5.26
 49.00 56.40    5.98    5.91    5.71    6.11    6.55    6.03    5.21    5.41    5.63    6.32    6.40    6.15    5.49
 43.20 54.60    5.44    5.29    5.23    5.28    4.94    4.60    4.12    4.09    4.47    4.96    5.35    5.40    3.87
 43.80 54.40    5.84    5.37    4.96    4.88    5.05    4.67    4.14    4.36    4.85    5.38    5.46    5.66    6.31
 43.30 54.10    7.36    7.12    6.63    6.45    6.48    6.15    5.57    5.65    6.14    6.74    7.14    7.32    6.72
 45.10 54.20    7.90    7.46    6.86    6.67    6.46    5.80    5.10    5.35    6.27    7.12    7.52    7.79    5.70
 45.90 54.20    4.46    4.29    4.24    4.36    4.23    3.92    3.46    3.46    3.74    4.15    4.39    4.43    4.10
 44.40 53.90    8.00    7.69    7.33    7.22    7.13    6.48    5.84    6.02    6.64    7.40    7.73    7.84    5.76
 43.80 56.30    6.33    6.08    5.93    6.23    6.15    5.73    5.12    5.09    5.49    6.25    6.41    6.41    5.95
 44.00 56.30    7.35    7.25    6.95    7.17    7.00    6.59    6.02    5.98    6.40    7.12    7.36    7.30    6.06
 43.40 56.70    5.96    5.74    5.54    5.51    5.29    4.96    4.59    4.86    5.29    6.16    6.38    6.21    5.62
 44.50 56.80    5.39    5.37    5.30    5.54    5.66    5.18    4.57    4.50    4.83    5.22    5.55    5.50    5.27
 45.40 56.80    5.92    5.73    5.67    6.13    6.37    6.08    5.59    5.73    5.83    6.34    6.30    6.22    5.84
 45.20 57.10    5.75    5.77    5.70    5.75    5.97    5.49    4.83    5.06    5.41    5.79    5.78    5.82    5.13
 46.60 57.70    7.61    7.47    7.14    7.16    7.40    6.87    6.04    6.24    6.87    7.45    7.67    7.81    6.76
 45.80 57.90    4.85    4.80    4.68    4.81    4.94    4.40    3.95    4.00    4.16    4.65    4.94    5.03    3.71
 43.40 56.20    5.45    5.15    5.00    5.13    4.99    4.69    4.16    4.29    4.52    5.26    5.52    5.64    4.76
 45.00 56.10    7.45    7.06    6.76    6.88    6.90    6.44    5.73    6.00    6.57    7.37    7.45    7.64    5.82
 43.00 55.90    6.52    6.26    6.14    6.35    6.24    5.72    5.22    5.22    5.61    6.31    6.30    6.56    4.61
 44.10 55.80    6.73    6.25    5.99    6.39    6.44    5.90    5.31    5.58    5.99    6.69    6.67    6.84    5.80
 45.50 55.50    7.12    6.96    6.63    7.04    7.09    6.62    5.93    5.94    6.24    6.77    6.93    7.04    6.30
 43.70 55.40    6.65    6.13    5.68    5.82    6.07    5.26    4.76    5.16    5.62    6.23    6.12    6.52    5.63
 45.30 55.00    7.23    6.87    6.32    6.58    6.60    6.10    5.42    5.60    6.05    6.84    7.00    7.14    6.17
 52.40 53.60    6.67    6.59    6.52    7.01    7.03    6.41    5.88    5.66    6.15    6.68    6.77    6.46    5.58
 53.70 53.70    6.90    6.15    6.00    6.04    6.10    5.78    4.96    5.00    5.68    6.01    6.44    6.25    6.34
 52.80 53.30    5.44    5.14    4.75    5.19    5.34    4.84    4.35    4.38    4.73    5.11    5.29    5.30    6.09
 52.10 53.00    3.40    3.47    3.40    3.74    3.70    3.31    3.06    2.77    3.06    3.28    3.42    3.12    2.96
 51.60 51.90    6.50    6.55    6.19    6.50    6.51    5.83    5.40    5.28    5.61    5.97    6.28    6.10    5.97
 53.10 52.40    5.92    5.86    5.54    5.97    6.00    5.39    4.97    4.84    5.30    5.80    5.81    5.78    6.12
 53.60 52.10    6.24    6.20    5.91    6.45    6.39    5.96    5.40    5.29    5.63    5.92    6.13    6.07    6.04
 56.40 52.30    5.36    5.32    5.18    5.67    6.50    5.79    5.24    5.23    5.59    5.74    5.38    5.23    5.32
 59.90 51.90    7.29    7.66    7.03    7.55    7.62    6.97    6.38    6.34    6.87    7.35    7.39    7.44    7.30
 53.40 51.50    7.03    7.14    7.10    7.73    7.42    6.80    6.36    6.18    6.53    6.76    6.96    6.86    6.93
 55.00 51.10    6.44    6.65    6.49    6.98    7.01    6.50    6.30    5.80    5.98    6.24    6.49    6.34    6.25
 55.10 51.80    7.78    7.66    7.44    8.10    8.30    7.69    7.16    6.98    7.43    7.49    7.42    7.49    6.61
 56.50 51.40    7.51    7.53    7.24    7.39    7.34    6.74    6.29    6.27    6.75    6.77    7.08    7.16    6.69
 57.40 51.50    5.64    6.12    6.25    6.64    6.65    6.07    5.64    5.40    5.68    6.04    6.07    5.51    5.53
 55.60 51.00    6.82    7.09    6.97    7.37    7.14    6.80    6.47    6.27    6.34    6.45    6.78    6.58    6.55
 60.90 51.10    7.24    7.70    7.35    7.55    8.04    7.65    7.14    6.98    7.19    7.39    7.37    7.49    6.96
 59.60 50.80    6.98    7.41    7.29    7.36    7.39    7.13    6.68    6.35    6.69    7.02    7.05    7.01    6.18
 42.60 53.50    6.26    6.06    5.78    5.88    5.83    5.33    4.68    4.73    5.15    5.73    6.23    6.19    5.58
 43.30 53.30    7.45    7.36    6.97    6.68    6.60    6.17    5.65    5.61    6.21    6.87    7.21    7.32    6.41
 45.70 53.30    6.43    6.36    6.19    6.26    6.23    5.75    4.99    5.07    5.67    6.37    6.56    6.36    6.13
 43.40 52.90    6.72    6.65    6.41    6.44    6.53    6.08    5.52    5.52    5.78    6.33    6.54    6.54    5.92
 44.10 53.20    7.88    7.67    7.29    7.29    7.29    6.79    6.10    6.16    6.67    7.41    7.77    7.75    6.70
 45.00 53.20    7.18    7.01    6.67    6.76    6.75    6.36    5.68    5.61    6.09    6.83    6.97    6.95    6.16
 45.10 52.80    7.29    7.12    6.71    6.80    6.92    6.47    5.96    6.08    6.46    6.98    7.11    7.07    6.09
 56.80 60.70    5.57    5.14    5.45    5.42    5.56    5.23    4.52    4.47    4.90    5.31    5.39    5.46    5.97
 58.40 60.60    3.06    2.84    2.96    3.26    3.24    3.15    2.60    2.53    2.86    3.18    3.20    3.08 9999.00
 56.50 60.40    4.49    4.38    4.58    4.33    4.34    3.89    3.30    3.53    3.93    4.42    4.28    4.48    5.43
 56.80 59.60    6.02    6.08    6.40    6.28    6.33    5.78    5.00    5.14    5.57    6.20    5.70    6.09 9999.00
 56.20 58.80    5.19    4.68    4.72    4.51    5.15    4.84    4.21    4.45    5.05    5.99    5.51    5.33    4.62
 58.90 58.50    5.44    5.67    5.64    5.49    5.60    5.22    4.57    4.60    5.16    5.80    5.61    5.54    5.23
 54.70 58.10    3.75    3.65    3.34    3.40    3.62    3.40    2.77    2.94    3.12    3.66    3.66    3.85    3.78
 56.50 58.50    6.86    6.54    6.63    6.75    6.92    6.41    5.70    5.97    6.56    7.47    6.97    7.01    6.97
 56.40 58.00    5.53    5.22    5.28    5.33    5.54    4.94    4.09    4.38    5.04    5.82    5.56    5.63    5.84
 57.80 58.10    4.24    3.99    3.96    4.01    4.11    3.65    2.75    2.92    3.53    3.95    3.95    4.07    3.65
 58.70 57.80    3.06    3.14    3.31    3.52    3.62    3.06    2.49    2.47    2.84    3.45    3.26    3.09    5.56
 54.70 57.70    3.72    3.48    3.25    3.26    3.77    3.31    2.76    2.83    3.12    3.57    3.59    3.80    4.62
 54.80 57.10    4.96    5.01    4.73    4.78    5.23    4.90    4.09    4.33    4.77    5.45    5.38    5.22    5.17
 55.40 57.70    4.31    4.09    3.96    3.95    4.39    3.95    3.45    3.73    3.98    4.52    4.27    4.30    5.21
 55.50 57.30    3.43    3.33    3.06    3.23    3.77    3.46    3.10    3.21    3.54    3.91    3.83    3.66    5.48
 56.90 57.40    4.19    3.86    3.84    3.91    4.26    3.70    3.01    3.15    3.52    4.20    4.10    4.28    5.10
 54.10 56.80    5.82    5.43    5.39    5.74    5.89    5.26    4.62    4.87    5.40    6.30    6.00    5.87    4.71
 57.30 56.50    6.10    6.07    5.62    5.82    6.09    5.74    4.90    5.02    5.50    6.09    6.05    6.12    4.60
 56.10 56.50    5.62    5.37    5.11    5.05    5.62    4.82    4.13    4.35    4.87    5.76    5.68    5.56    5.47
 49.50 53.50    7.92    7.58    7.25    7.67    7.49    7.01    6.55    6.34    6.70    7.85    8.32    7.96    7.00
 48.80 53.60    8.44    8.24    7.88    7.91    8.29    7.60    6.96    7.13    7.75    8.58    8.53    8.44    6.90
 49.50 53.30    5.16    5.31    4.95    5.14    5.16    4.62    4.33    4.15    4.50    5.08    5.17    4.89    2.71
 48.50 53.20    6.78    6.93    6.64    7.17    7.57    7.20    6.75    6.55    6.71    6.95    7.00    6.74    6.71
 49.40 53.00    6.40    6.30    6.09    6.61    6.73    6.13    5.80    5.73    5.91    6.33    6.37    6.25    5.48
 51.10 54.40    7.12    6.97    6.56    6.74    6.90    6.22    5.57    5.59    6.14    6.88    7.15    7.03    6.44
 52.10 54.20    7.91    7.98    7.63    7.84    8.23    7.43    6.83    6.73    7.17    7.79    7.95    7.67    6.57
 51.30 53.90    7.44    7.32    6.85    7.37    7.61    6.80    6.35    6.14    6.38    7.04    7.36    7.14    6.73
 50.20 53.30    6.82    6.79    6.56    6.90    6.59    6.25    5.85    5.66    6.12    6.77    6.87    6.63    5.63
 50.10 52.90    6.78    6.64    6.35    6.95    7.07    6.25    5.75    5.74    6.32    6.99    6.97    6.78    5.75
 51.30 52.60    7.42    7.30    6.94    7.28    7.08    6.36    5.76    5.64    6.32    6.91    7.24    7.07    7.14
 48.60 50.20    6.41    6.58    6.29    6.40    6.12    6.07    5.88    5.79    6.08    6.12    6.24    6.30    6.65
 48.10 50.40    6.47    6.62    6.54    6.69    6.26    5.89    5.54    5.52    5.67    5.76    6.04    6.24    5.82
 46.90 50.90    6.72    6.74    6.49    6.86    6.80    6.54    6.20    5.88    6.07    6.29    6.36    6.52    5.35
 45.40 51.10    6.99    6.90    6.57    6.67    6.48    5.74    5.50    5.44    5.82    6.28    6.70    6.60    6.08
 46.00 51.50    6.96    6.95    6.89    7.03    6.75    6.69    6.48    6.02    6.15    6.58    6.86    6.93    5.89
 43.20 51.60    7.97    8.09    7.81    7.84    7.49    7.03    6.54    6.44    6.76    7.25    7.79    7.75    6.74
 45.50 51.60    7.82    7.94    7.75    7.67    7.51    7.19    6.88    6.60    6.90    7.08    7.54    7.56    6.95
 46.70 51.70    6.94    7.13    7.28    7.25    7.14    6.84    6.50    6.24    6.57    6.86    7.01    6.81    6.35
 43.70 51.90    6.47    6.52    6.13    6.18    5.73    5.18    4.77    4.87    5.24    5.73    6.31    6.42    6.21
 45.00 51.90    8.10    8.26    7.88    7.93    7.65    7.15    6.70    6.66    7.04    7.41    7.83    7.86    7.72
 50.30 51.90    7.31    7.50    6.78    7.14    7.31    6.74    6.29    6.30    6.53    6.76    7.00    7.03    6.35
 48.80 52.00    6.36    6.63    6.30    6.56    6.48    6.04    5.70    5.47    5.52    5.93    6.29    6.11    6.42
 43.80 52.30    7.24    7.36    6.82    6.77    6.64    6.17    5.52    5.46    5.93    6.43    6.98    7.04    6.78
 45.40 52.30    7.60    7.63    7.32    7.43    7.49    6.94    6.37    6.24    6.71    7.20    7.49    7.40    6.77
 46.40 52.30    7.89    8.27    7.82    7.85    7.91    7.67    7.22    7.11    7.60    8.20    8.22    7.85    7.55
 48.10 52.50    6.94    6.80    6.45    7.00    7.52    7.24    6.89    6.89    7.29    7.70    7.74    7.21    7.46
 48.30 51.40    7.98    8.04    7.75    7.92    7.84    7.40    7.14    6.89    7.21    7.43    7.81    7.78    7.09
 44.50 51.50    7.53    7.51    7.15    7.15    7.04    6.53    5.96    5.91    6.32    6.81    7.27    7.34    6.11
 50.40 54.50    7.10    6.86    6.46    6.66    6.91    6.06    5.18    5.24    5.85    6.59    6.95    6.99    5.73
 52.80 54.60    8.54    8.38    8.01    7.94    8.09    7.15    6.44    6.57    7.21    8.25    8.37    8.42    6.66
 47.60 54.70    8.19    7.82    7.28    7.24    7.51    6.65    6.02    6.42    7.00    7.68    7.97    8.11    6.64
 48.90 54.90    7.71    7.21    6.82    6.78    6.93    5.99    5.20    5.57    6.24    7.19    7.57    7.77    6.91
 53.10 54.90    5.84    5.86    5.69    6.15    6.51    5.71    5.30    5.22    5.49    6.37    6.27    5.95    5.67
 52.10 55.00    6.78    6.62    6.39    6.87    7.34    6.34    5.57    5.97    6.37    6.95    6.70    6.55    5.53
 50.60 55.30    7.50    7.37    6.79    6.47    6.29    5.49    4.86    5.10    5.72    6.45    7.02    7.30    6.26
 53.20 55.30    5.78    5.49    5.29    5.78    6.12    5.21    4.40    4.45    4.82    5.61    5.57    5.69    4.68
 48.20 55.40    7.02    6.71    6.28    6.42    6.90    6.15    5.28    5.67    6.25    6.89    7.00    7.13    6.11
 49.60 55.40    7.19    6.99    6.56    6.75    7.08    6.68    6.08    6.27    6.64    7.33    7.42    7.24    6.46
 53.10 55.60    7.25    7.00    6.53    6.65    7.38    6.22    5.44    5.70    6.08    7.12    7.20    7.22    6.13
 48.50 55.80    7.12    7.09    6.57    6.59    6.87    6.17    5.34    5.79    6.39    7.03    7.19    7.07    6.61
 49.30 55.80    6.23    6.12    5.68    5.95    5.98    5.54    4.95    5.28    5.63    6.30    6.41    6.18    5.16
 52.10 55.80    5.44    5.62    5.60    6.19    6.59    5.87    5.32    5.31    5.49    6.24    6.14    5.77    5.54
 49.90 56.10    6.40    6.29    5.90    6.15    6.54    5.81    5.21    5.38    5.81    6.25    6.36    6.32    5.63
 52.70 58.10    6.26    6.22    6.24    6.43    6.67    5.94    4.84    5.27    5.87    6.79    6.64    6.58    5.60
 52.20 57.30    6.66    6.35    6.22    6.40    6.84    6.26    5.47    5.71    6.11    6.76    6.81    6.82    5.46
 53.80 57.60    5.74    5.58    5.48    5.78    6.47    5.89    5.06    5.32    5.64    6.20    6.11    5.90    5.91
 53.10 57.60    6.62    6.64    6.53    6.80    7.02    6.52    5.57    5.74    6.10    6.76    6.76    6.69    6.00
 54.10 57.10    6.04    6.07    5.92    6.04    6.36    5.80    5.03    5.31    5.64    6.40    6.28    6.13    5.07
 52.20 56.40    6.58    6.54    6.56    6.82    7.15    6.44    5.70    5.84    6.26    7.04    6.99    6.76    5.72
 53.30 56.90    6.70    6.58    6.48    6.64    7.12    6.33    5.55    5.76    6.15    6.90    6.85    6.76    5.74
 53.80 56.50    6.29    6.15    5.96    6.23    6.99    6.34    5.55    5.72    5.94    6.49    6.34    6.18    5.19
 47.50 53.20    4.87    4.96    4.89    5.37    5.36    5.20    4.87    4.66    4.81    5.03    5.04    4.91    5.06
 46.40 53.90    6.24    6.19    6.13    6.17    6.57    5.87    5.31    5.22    5.63    6.18    6.14    6.04    5.49
 48.80 54.00    6.09    5.98    5.92    6.29    6.72    6.37    5.89    5.93    6.19    6.60    6.50    6.18    5.50
 49.70 54.20    5.56    5.53    5.27    5.59    5.69    5.29    4.95    4.70    4.80    5.44    5.65    5.53    5.48
 48.30 54.30    7.11    6.88    6.51    6.85    7.20    6.46    5.92    6.06    6.52    7.09    7.06    7.07    6.38
 46.70 54.50    5.56    5.42    5.47    5.67    5.92    5.37    4.85    4.86    4.95    5.62    5.75    5.59    4.68
