 54.90 56.30   82.77   80.77   79.48   72.75   62.55   68.67   72.75   74.97   77.92   81.42   84.75   83.53   76.86
 56.60 56.10   82.30   79.29   77.03   70.30   62.48   68.61   73.21   75.37   78.01   82.50   85.20   83.15   76.46
 56.90 55.80   80.21   78.21   76.41   70.87   64.65   70.98   75.62   77.36   78.47   80.87   83.16   81.93   76.56
 58.60 55.90   80.64   78.46   78.59   72.28   65.97   71.28   76.44   79.07   79.19   81.57   82.38   81.49   77.28
 57.90 55.70   81.96   79.13   75.44   67.78   60.47   67.53   74.03   76.47   76.74   80.23   83.18   82.44   75.45
 54.30 55.40   83.06   81.15   81.46   74.41   63.27   69.88   73.02   74.44   77.36   82.13   85.18   83.78   77.44
 53.80 55.20   81.11   79.33   78.59   70.17   59.72   67.96   71.66   72.63   74.62   79.12   83.22   81.69   74.99
 55.50 55.40   83.24   79.59   76.20   67.21   57.63   65.69   70.38   71.56   74.25   79.71   84.17   83.67   74.57
 56.60 55.40   84.79   79.90   74.83   66.71   60.80   67.40   72.00   74.48   75.64   81.68   85.29   84.87   75.64
 55.40 55.10   81.95   79.81   79.62   70.73   57.97   65.70   70.39   71.25   73.45   79.69   83.90   82.72   74.75
 56.90 54.90   79.28   76.08   73.25   66.71   64.70   72.40   76.50   79.04   79.12   79.20   81.90   81.57   75.81
 54.90 54.10   81.34   79.35   78.93   73.02   63.15   67.10   69.95   70.90   73.61   79.45   82.83   82.24   75.15
 52.80 54.60   82.97   80.46   77.78   68.41   55.67   65.15   69.64   69.83   72.13   79.31   85.80   84.00   74.23
 54.20 54.00   83.38   80.43   79.32   70.66   57.64   66.13   70.43   69.84   71.72   79.69   85.72   84.09   74.90
 55.40 54.60   80.64   78.99   78.65   68.42   57.87   66.39   70.12   70.69   72.48   77.97   82.24   81.36   73.82
 56.80 54.40   78.62   75.20   72.82   65.89   63.28   70.44   74.26   75.48   75.60   77.50   80.14   80.30   74.12
 59.40 54.40   79.43   75.42   73.53   65.46   59.82   66.61   72.88   73.78   72.93   74.33   78.37   79.29   72.65
 57.40 53.90   81.42   76.81   73.86   68.82   64.22   69.97   74.07   76.05   76.46   79.88   82.47   82.68   75.63
 56.00 53.60   82.45   80.07   79.37   67.98   58.74   65.17   69.13   70.91   72.05   76.91   82.03   83.09   73.96
 55.10 53.10   83.28   79.73   77.19   68.82   59.58   65.97   70.33   70.96   71.83   77.71   83.62   83.20   74.42
 58.30 53.90   81.29   76.97   72.50   66.35   60.55   67.85   73.24   74.75   74.78   77.11   81.18   82.13   74.05
 55.90 52.90   81.43   79.49   79.48   68.93   57.25   63.37   66.73   65.90   68.13   76.61   82.85   82.22   72.68
 57.50 52.80   82.36   78.44   75.13   69.73   64.04   68.33   72.08   72.38   73.91   79.26   84.13   83.56   75.27
 55.80 52.80   83.49   80.19   78.85   66.92   54.00   60.83   64.38   62.67   65.13   76.29   84.66   84.21   71.80
 56.60 52.70   80.98   78.59   78.21   70.70   63.17   69.69   72.40   72.23   73.62   79.08   83.15   82.46   75.36
 58.30 52.60   80.46   77.74   79.15   68.56   56.41   60.27   63.95   63.76   66.14   74.30   81.88   80.87   71.11
 57.40 52.20   82.35   77.87   75.62   67.46   59.78   65.34   68.58   68.68   70.13   76.16   83.00   82.89   73.17
 58.20 51.90   80.16   78.92   81.12   68.91   54.36   57.70   61.28   59.28   61.16   70.72   81.56   80.92   69.67
 47.10 56.10   84.07   80.53   76.98   68.63   59.17   66.61   69.42   71.14   76.93   81.86   86.71   85.55   75.73
 47.50 55.50   80.71   77.88   75.06   66.27   56.61   65.10   68.63   68.64   74.09   79.26   84.49   82.39   73.31
 46.30 55.20   84.18   82.07   80.55   70.01   58.93   68.52   72.09   72.10   76.23   81.92   86.71   85.15   76.58
 46.60 54.90   83.96   81.87   79.59   70.80   59.98   68.06   70.45   70.82   76.12   82.50   87.64   85.78   76.26
 47.60 55.10   83.44   81.95   81.16   72.56   60.76   68.40   72.18   72.33   76.42   81.03   86.48   84.67   76.70
 48.30 59.90   84.25   81.76   76.46   68.10   63.90   69.70   75.90   80.76   83.86   85.71   87.77   86.13   78.74
 48.90 59.40   84.80   82.23   76.30   67.36   62.59   68.43   73.78   78.67   83.03   85.79   88.21   86.32   78.14
 47.90 58.80   84.36   82.03   77.50   70.17   65.19   70.69   75.31   79.45   83.51   85.76   88.55   86.61   79.09
 49.70 58.50   83.93   80.76   74.75   66.41   59.75   66.03   70.64   74.92   80.35   83.57   86.74   85.20   76.10
 47.10 58.30   83.92   80.84   75.44   68.38   63.38   69.85   74.13   78.16   82.14   84.43   87.75   86.10   77.90
 48.40 58.30   83.16   80.06   75.79   68.85   62.84   68.00   72.41   75.78   80.00   82.61   85.88   84.73   76.69
 49.10 58.00   85.28   81.77   76.46   68.37   61.52   67.71   72.02   76.14   81.68   85.30   88.27   86.71   77.64
 49.90 58.10   82.12   80.00   75.86   68.94   62.19   67.49   72.18   75.01   80.07   83.57   85.82   83.89   76.46
 47.90 57.40   83.52   81.38   79.18   72.65   65.45   69.74   72.95   75.58   80.50   83.64   86.87   85.06   78.05
 49.90 57.60   82.10   78.90   75.14   67.32   59.35   65.17   68.90   72.10   78.43   82.42   85.60   83.98   74.98
 47.30 56.90   84.24   81.84   79.04   71.43   64.36   70.42   73.35   75.41   80.46   83.64   87.14   85.42   78.08
 50.80 59.30   85.83   82.89   76.72   68.30   63.39   68.66   73.26   78.48   82.83   86.14   88.61   87.21   78.51
 52.20 59.30   82.86   80.03   75.67   68.54   64.48   69.38   74.93   79.82   83.23   85.44   86.81   84.29   77.96
 50.90 58.90   82.79   80.68   77.15   70.29   65.36   69.88   74.91   78.52   82.21   85.07   87.07   84.93   78.33
 51.60 58.40   83.51   80.94   76.82   70.39   63.25   68.59   73.72   77.16   82.03   85.22   87.32   85.08   77.81
 51.50 57.80   83.24   80.07   76.19   68.99   62.18   66.97   71.21   75.28   80.98   84.69   87.19   85.36   76.88
 50.00 57.10   84.52   82.07   78.43   70.70   61.24   67.67   71.60   73.75   79.60   84.11   87.65   86.11   77.31
 51.10 56.90   82.72   79.92   75.74   67.56   59.59   67.08   71.46   74.40   78.77   81.97   86.04   84.20   75.79
 51.10 56.20   81.81   80.10   78.82   71.27   58.84   67.03   71.44   73.05   76.76   81.52   85.58   83.40   75.66
 47.60 60.70   83.34   81.14   76.38   68.93   65.30   68.53   74.28   79.68   83.86   85.76   87.34   85.11   78.25
 52.60 60.50   82.17   78.71   71.96   64.64   62.23   65.37   70.28   77.18   82.15   84.98   86.42   84.11   75.85
 54.30 60.30   83.98   81.47   73.91   65.82   62.24   66.80   72.52   79.25   83.45   86.03   87.82   85.79   77.47
 55.00 59.90   84.98   81.81   73.67   65.62   61.52   65.64   71.74   78.37   82.33   85.25   88.09   86.58   77.17
 54.50 59.60   84.40   81.26   74.53   68.11   64.72   69.19   75.18   80.79   84.10   85.38   87.28   85.83   78.35
 54.70 59.00   83.98   81.67   76.04   69.98   64.46   70.12   75.26   79.56   82.99   84.33   86.07   84.93   78.39
 46.60 56.40   82.42   79.24   75.54   66.41   58.19   65.85   69.10   71.09   75.52   79.62   84.92   83.78   74.24
 48.70 57.00   83.50   80.86   79.06   72.62   63.39   67.97   72.01   73.78   79.26   83.37   86.62   84.83   77.25
 49.00 56.40   82.17   78.99   76.64   70.10   61.92   67.44   71.67   74.03   78.46   81.80   85.58   83.96   76.08
 43.20 54.60   83.69   81.02   78.34   69.79   63.53   69.34   71.78   72.53   76.50   81.19   86.58   85.31   76.67
 43.80 54.40   85.34   81.89   79.66   70.28   61.21   67.97   70.07   70.52   75.16   82.22   87.89   86.82   76.62
 43.30 54.10   85.69   82.87   81.81   71.57   61.10   67.90   70.80   70.52   75.60   83.18   88.78   87.14   77.27
 45.10 54.20   82.99   80.75   78.98   69.88   59.70   68.14   70.19   70.12   74.52   80.83   85.77   84.51   75.65
 45.90 54.20   81.98   78.85   77.78   67.20   60.03   67.13   70.01   70.77   74.28   79.11   84.40   83.49   74.63
 44.40 53.90   83.21   81.93   80.96   70.10   60.33   68.71   71.92   71.07   75.01   81.04   86.62   84.77   76.29
 43.80 56.30   82.78   79.55   76.06   67.53   63.05   69.95   72.97   74.61   78.84   81.62   85.15   83.86   76.33
 44.00 56.30   84.66   80.63   74.62   65.36   59.98   67.37   70.39   73.14   78.13   81.81   86.97   86.22   75.77
 43.40 56.70   83.92   80.59   77.21   70.54   66.36   72.23   74.35   76.05   80.52   82.96   86.43   85.37   78.08
 44.50 56.80   83.97   80.76   76.12   69.16   64.78   71.11   74.23   76.83   80.77   83.73   87.24   85.41   77.85
 45.40 56.80   84.12   80.83   76.40   68.77   64.25   70.30   73.06   76.04   80.41   83.07   86.73   85.51   77.51
 45.20 57.10   83.67   80.75   75.25   68.04   63.26   69.17   72.38   75.92   80.31   83.11   86.69   85.52   77.00
 46.60 57.70   85.40   82.23   76.75   68.98   63.12   69.99   73.77   77.20   81.65   84.81   88.17   86.65   78.26
 45.80 57.90   84.37   81.00   76.19   69.34   63.98   70.93   74.49   78.27   82.26   85.09   88.09   85.95   78.34
 43.40 56.20   85.22   81.92   75.68   66.38   61.78   67.81   69.68   72.75   77.63   81.51   86.04   85.92   76.02
 45.00 56.10   82.84   80.46   77.26   68.27   61.20   69.08   72.04   73.79   77.99   81.45   85.92   84.19   76.19
 43.00 55.90   83.91   80.76   76.07   67.55   61.51   69.55   72.68   74.41   78.76   82.53   87.55   85.98   76.67
 44.10 55.80   82.86   80.69   78.42   70.73   62.44   68.32   71.80   73.16   77.97   81.87   86.27   84.26   76.58
 45.50 55.50   84.75   82.25   79.56   70.37   62.05   68.92   71.55   72.68   77.60   82.28   87.38   86.29   77.14
 43.70 55.40   83.27   81.48   80.29   71.99   63.00   69.11   71.76   72.58   77.65   82.60   86.70   84.96   77.16
 45.30 55.00   84.44   82.34   80.69   70.11   60.54   68.67   71.13   71.58   76.30   82.56   87.56   85.75   76.85
 52.40 53.60   82.14   79.79   80.66   70.17   57.32   65.45   67.20   67.74   70.87   78.43   84.99   83.17   74.00
 53.70 53.70   81.64   79.88   82.11   71.08   58.77   65.85   69.09   66.56   69.31   79.43   85.57   82.35   74.29
 52.80 53.30   79.84   78.17   80.06   69.55   55.45   61.82   64.83   64.45   68.17   76.37   83.24   81.13   71.95
 52.10 53.00   80.74   77.80   76.36   67.12   58.69   63.87   65.74   67.30   71.30   77.66   83.64   82.20   72.75
 51.60 51.90   82.71   80.60   82.40   68.81   55.81   59.72   60.22   58.53   63.83   74.80   84.70   84.34   71.41
 53.10 52.40   81.36   79.71   81.12   66.90   53.74   59.39   61.48   60.12   63.93   74.90   83.84   82.43   70.79
 53.60 52.10   80.02   77.78   79.17   66.15   53.73   58.95   60.46   59.33   63.39   74.03   82.91   81.46   69.80
 56.40 52.30   78.87   75.79   77.63   70.34   57.12   63.39   67.16   66.15   68.09   76.14   82.22   80.80   71.99
 59.90 51.90   80.03   78.92   81.16   69.29   56.75   56.83   60.05   58.62   61.50   71.84   81.37   81.88   69.82
 53.40 51.50   79.71   78.12   79.27   63.29   52.42   57.56   58.51   57.51   61.29   71.41   81.80   81.00   68.51
 55.00 51.10   80.94   80.23   81.77   66.21   53.59   55.69   55.81   55.64   61.01   72.12   81.89   81.82   68.92
 55.10 51.80   79.46   78.19   79.76   64.61   51.63   55.93   57.65   55.78   59.70   71.26   81.46   80.90   68.02
 56.50 51.40   77.01   76.76   78.48   66.25   55.03   58.18   59.44   57.22   61.44   71.68   79.79   77.98   68.30
 57.40 51.50   78.21   76.60   78.54   66.64   56.44   60.71   62.79   61.71   64.53   72.90   80.57   80.23   69.99
 55.60 51.00   77.91   76.11   77.43   63.95   53.44   55.66   56.01   54.28   59.49   70.39   79.46   79.18   66.92
 60.90 51.10   80.84   80.78   83.85   70.31   56.28   54.59   57.09   55.99   59.47   71.10   82.48   82.92   69.65
 59.60 50.80   81.91   81.27   83.51   68.13   53.97   52.62   55.29   53.14   56.79   69.71   82.79   83.25   68.48
 42.60 53.50   84.70   83.07   81.99   71.65   61.10   66.87   70.52   70.24   74.89   81.39   87.44   86.03   76.68
 43.30 53.30   84.97   82.28   80.22   69.88   59.56   66.71   69.75   68.97   73.16   81.21   87.78   86.74   75.98
 45.70 53.30   82.54   80.29   78.15   69.12   61.33   68.51   71.93   71.82   75.25   80.30   86.26   84.54   75.84
 43.40 52.90   85.01   81.83   80.39   68.61   58.98   66.81   69.49   68.39   72.89   81.04   88.45   87.20   75.77
 44.10 53.20   83.00   81.29   80.95   70.41   58.53   66.41   70.06   69.34   72.84   79.87   86.36   84.73   75.31
 45.00 53.20   83.66   81.89   80.17   68.31   59.33   66.22   69.10   69.05   72.66   79.21   86.24   84.99   75.07
 45.10 52.80   83.75   81.54   81.41   70.96   60.14   66.66   69.64   67.97   72.13   79.64   86.96   85.50   75.53
 56.80 60.70   83.45   81.22   75.38   67.92   63.27   67.36   74.15   80.91   83.63   86.14   87.06   85.50   77.97
 58.40 60.60   79.66   79.07   75.73   71.13   67.83   68.60   74.43   80.92   83.29   83.97   83.39   81.22   77.45
 56.50 60.40   85.88   83.79   75.48   66.81   61.35   64.68   70.49   77.80   82.58   86.46   88.42   86.89   77.55
 56.80 59.60   86.38   82.77   74.95   65.22   62.54   68.13   73.78   81.43   83.37   86.31   87.21   87.30   78.27
 56.20 58.80   81.97   80.05   76.98   71.47   66.14   71.41   75.36   78.96   81.34   82.78   84.95   83.31   77.89
 58.90 58.50   85.15   81.83   75.36   69.22   64.65   69.78   75.17   80.69   83.41   86.17   87.90   86.60   78.83
 54.70 58.10   82.75   79.67   73.57   67.04   62.24   66.97   72.35   76.22   81.04   83.80   85.18   83.84   76.21
 56.50 58.50   82.93   80.22   74.35   67.14   62.36   68.28   72.53   77.16   80.02   82.26   85.13   84.30   76.50
 56.40 58.00   82.20   78.96   72.29   65.59   60.94   67.07   72.11   76.40   79.70   81.74   84.67   83.41   75.42
 57.80 58.10   80.49   77.02   71.32   64.83   60.54   66.66   72.63   77.98   79.70   82.64   83.95   81.70   74.94
 58.70 57.80   79.73   77.68   72.70   67.19   63.17   69.33   75.35   80.25   81.30   81.79   82.65   81.29   76.02
 54.70 57.70   82.44   80.03   76.52   71.29   64.43   69.10   73.77   76.70   80.68   83.68   86.23   84.04   77.40
 54.80 57.10   79.94   76.96   72.24   67.57   61.76   67.96   71.66   74.22   77.23   80.12   82.47   80.87   74.44
 55.40 57.70   83.68   80.24   74.37   67.77   61.96   67.50   72.67   76.62   80.10   83.39   86.91   85.36   76.76
 55.50 57.30   83.34   80.29   78.20   73.02   64.96   67.92   71.02   75.23   78.99   82.21   84.58   84.01   77.00
 56.90 57.40   81.18   79.02   75.26   68.64   61.66   67.02   72.80   76.93   79.12   81.64   83.46   82.20   75.73
 54.10 56.80   83.55   80.17   75.89   69.08   61.99   67.06   71.70   74.08   77.36   80.48   85.20   84.25   75.90
 57.30 56.50   82.75   78.76   74.12   67.84   63.11   69.87   75.44   79.02   80.49   83.72   85.81   84.04   77.09
 56.10 56.50   83.47   80.80   78.52   71.52   63.57   70.16   74.32   77.09   79.65   82.86   85.38   84.60   77.66
 49.50 53.50   81.44   79.10   77.26   65.10   55.66   62.68   65.39   66.09   69.46   74.87   82.30   82.25   71.82
 48.80 53.60   82.36   80.06   78.66   68.34   55.88   64.54   67.67   66.25   69.80   76.35   84.90   83.69   73.21
 49.50 53.30   85.90   82.01   79.55   66.64   55.01   63.16   66.43   64.77   69.70   77.92   87.72   87.16   73.87
 48.50 53.20   81.00   79.48   78.82   66.68   54.59   62.12   65.56   65.17   69.27   76.21   83.95   82.75   72.14
 49.40 53.00   82.76   81.42   81.78   66.64   53.83   62.14   65.49   64.32   67.36   75.27   85.33   84.54   72.58
 51.10 54.40   83.43   80.79   80.27   70.65   58.28   66.26   69.81   69.52   72.49   79.79   86.07   84.56   75.22
 52.10 54.20   83.31   79.81   78.19   67.66   54.66   63.16   66.72   67.59   70.98   79.25   86.71   84.57   73.57
 51.30 53.90   81.25   78.88   78.50   66.82   53.88   63.41   66.48   65.84   68.51   76.78   84.37   82.48   72.28
 50.20 53.30   83.16   79.98   77.54   63.50   52.57   60.43   63.76   63.60   67.48   75.17   85.24   85.08   71.44
 50.10 52.90   82.15   80.32   80.46   67.03   54.06   62.26   65.60   63.97   66.92   75.52   85.44   84.21   72.34
 51.30 52.60   80.85   79.28   80.65   67.08   53.72   60.49   62.58   60.81   64.50   74.80   83.66   82.04   70.88
 48.60 50.20   84.54   83.49   83.23   64.82   53.08   51.79   51.57   51.20   58.38   72.14   85.86   86.37   68.82
 48.10 50.40   82.99   82.09   82.03   65.66   53.61   53.38   53.11   52.08   59.96   72.26   84.48   84.78   68.91
 46.90 50.90   83.48   81.93   81.44   67.60   55.69   57.52   57.15   57.28   64.69   74.52   84.61   84.38   70.86
 45.40 51.10   84.96   83.71   83.59   67.54   55.32   60.73   61.65   59.65   66.07   76.63   87.40   86.73   72.81
 46.00 51.50   80.38   79.09   78.25   63.67   53.83   58.07   58.85   59.14   65.33   73.53   83.06   82.99   69.66
 43.20 51.60   84.88   82.34   81.08   67.79   58.07   63.91   65.94   63.01   68.42   77.20   86.61   86.66   73.81
 45.50 51.60   84.00   81.92   81.94   67.23   56.15   61.58   63.34   61.59   67.19   76.67   86.63   85.72   72.81
 46.70 51.70   81.69   80.08   79.94   63.64   52.70   58.72   60.34   59.99   65.22   72.80   83.98   83.95   70.24
 43.70 51.90   83.80   81.12   81.19   67.94   57.68   64.63   67.08   64.33   69.17   78.47   86.77   85.65   73.99
 45.00 51.90   84.98   82.35   80.27   66.73   56.10   62.77   64.43   63.28   68.31   77.48   86.49   85.98   73.27
 50.30 51.90   82.23   80.77   82.05   68.56   55.12   59.67   60.54   59.60   64.87   75.24   84.41   83.14   71.24
 48.80 52.00   79.85   78.40   79.17   65.21   52.95   57.75   59.31   58.46   64.27   73.42   82.71   81.74   69.43
 43.80 52.30   85.05   82.74   81.63   68.26   57.03   64.32   67.17   65.16   70.27   79.26   87.46   86.45   74.57
 45.40 52.30   82.57   80.96   81.07   68.73   57.38   63.30   66.23   65.14   69.82   78.00   86.36   84.67   73.71
 46.40 52.30   86.52   83.70   81.84   67.31   54.64   62.38   65.15   63.74   68.14   78.20   88.40   88.00   73.95
 48.10 52.50   80.83   78.23   77.56   64.88   52.88   59.97   61.89   60.69   64.34   72.47   83.06   82.58   70.08
 48.30 51.40   83.78   82.78   83.28   66.19   52.72   57.08   57.03   55.77   61.38   73.44   85.68   85.42   70.39
 44.50 51.50   84.25   81.89   81.25   69.59   60.67   65.16   67.20   66.14   71.41   78.87   86.22   85.47   74.89
 50.40 54.50   82.74   80.92   82.08   72.75   60.51   69.60   72.51   73.16   75.45   80.51   86.36   84.28   76.75
 52.80 54.60   82.97   80.46   77.78   68.41   55.67   65.15   69.64   69.83   72.13   79.31   85.80   84.00   74.23
 47.60 54.70   83.33   80.99   79.22   70.03   58.16   66.56   70.68   69.54   73.95   79.90   85.72   84.65   75.25
 48.90 54.90   84.70   82.00   80.36   71.96   60.21   67.77   70.69   70.28   74.43   80.75   87.34   85.92   76.37
 53.10 54.90   79.62   76.71   75.76   67.79   56.72   65.24   69.90   71.87   74.15   78.12   82.27   80.70   73.25
 52.10 55.00   83.40   81.31   80.58   70.51   59.69   67.72   71.39   72.13   74.54   80.45   84.96   83.53   75.96
 50.60 55.30   84.32   81.78   80.65   72.73   60.30   68.82   72.10   72.61   76.42   82.23   87.73   85.81   77.14
 53.20 55.30   81.30   79.26   79.92   71.80   62.08   67.88   71.56   72.72   75.30   80.54   84.37   82.69   75.80
 48.20 55.40   82.79   80.58   80.05   72.11   60.81   68.03   72.02   71.40   75.76   81.14   86.22   84.03   76.24
 49.60 55.40   83.84   80.32   79.05   70.78   59.43   66.79   70.89   71.66   76.11   80.91   86.34   85.04   75.96
 53.10 55.60   81.77   80.33   79.40   70.70   58.23   65.54   70.13   71.44   74.88   80.20   84.53   82.74   74.97
 48.50 55.80   82.25   78.54   75.93   67.26   59.43   66.20   70.30   71.38   75.11   79.38   84.63   84.04   74.56
 49.30 55.80   82.84   80.01   77.33   68.35   58.11   65.34   68.86   69.99   74.67   79.61   85.31   84.07   74.49
 52.10 55.80   81.74   79.26   78.24   68.66   59.59   65.36   69.15   71.54   75.00   79.61   83.97   82.78   74.58
 49.90 56.10   84.26   81.53   79.96   72.08   60.76   66.20   70.40   71.94   76.83   82.63   87.41   85.34   76.63
 52.70 58.10   82.63   80.75   78.14   71.95   63.80   69.75   74.43   77.18   81.76   84.37   86.63   84.15   77.94
 52.20 57.30   83.59   79.89   75.23   67.47   60.10   66.49   71.41   74.36   79.01   82.92   86.97   84.64   75.98
 53.80 57.60   81.09   78.54   75.68   69.93   63.31   68.87   74.13   76.59   80.83   82.90   85.20   82.59   76.62
 53.10 57.60   82.91   79.13   73.69   66.40   60.26   66.77   71.54   75.44   79.95   83.04   86.50   84.49   75.86
 54.10 57.10   83.68   80.66   76.56   68.79   60.90   66.67   71.23   74.57   78.89   82.71   86.56   85.28   76.31
 52.20 56.40   81.68   78.31   74.89   68.50   61.64   68.39   72.52   75.22   78.43   81.77   85.30   83.45   75.86
 53.30 56.90   82.96   80.16   76.90   69.48   60.37   66.75   71.32   73.83   77.86   81.97   85.88   83.86   75.93
 53.80 56.50   82.61   79.68   76.77   69.00   60.04   66.09   70.34   72.38   76.56   81.39   85.29   83.87   75.21
 47.50 53.20   79.94   78.21   77.42   66.05   57.63   64.03   66.26   67.03   70.77   75.53   83.10   82.15   72.34
 46.40 53.90   83.08   81.00   78.12   69.18   61.72   69.24   73.28   73.96   76.76   80.35   86.08   84.63   76.43
 48.80 54.00   82.08   80.16   79.01   69.17   59.53   67.85   70.68   70.77   73.82   77.72   83.96   83.06   74.82
 49.70 54.20   82.71   79.72   78.43   68.98   60.35   66.18   68.92   71.02   75.37   79.78   85.79   84.60   75.18
 48.30 54.30   83.95   81.66   80.26   68.47   58.46   66.50   69.84   70.58   73.75   79.36   84.87   84.17   75.17
 46.70 54.50   82.29   79.99   78.67   68.64   61.12   68.36   71.78   72.72   76.51   80.22   85.40   84.05   75.86
