 54.90 56.30     0     0     0     2    10     4     2     1     2     1     0     0    21
 56.60 56.10     0     0     1     3    10     5     2     2     2     1     0     0    26
 56.90 55.80     0     1     2     4    10     4     2     2     2     1     0     0    27
 58.60 55.90     0     0     0     3     8     3     1     1     2     1     0     0    17
 57.90 55.70     0     0     1     5    11     4     1     1     2     1     0     0    26
 54.30 55.40     0     0     0     2     9     3     2     2     2     1     0     0    17
 53.80 55.20     0     0     0     4    12     4     2     3     3     1     0     0    30
 55.50 55.40     0     0     0     2    10     4     1     2     2     1     0     0    21
 56.60 55.40     0     1     1     4     8     3     1     1     2     0     0     0    20
 55.40 55.10     0     0     0     4    13     5     2     3     3     2     0     0    32
 56.90 54.90     0     1     3     6    10     3     1     1     2     2     0     0    29
 54.90 54.10     0     0     0     2     8     3     2     2     2     1     0     0    20
 52.80 54.60     0     0     0     4    13     4     2     3     3     1     0     0    30
 54.20 54.00     0     0     1     3    12     4     2     3     4     2     0     0    30
 55.40 54.60     0     0     0     5    13     4     2     3     3     2     0     0    33
 56.80 54.40     0     1     1     5     8     2     1     1     2     1     1     0    23
 59.40 54.40     0     1     2     5     9     4     1     2     3     2     1     0    29
 57.40 53.90     0     1     3     5    10     4     1     2     3     2     0     0    31
 56.00 53.60     0     0     1     6    13     6     3     4     4     2     0     0    39
 55.10 53.10     0     0     0     2     6     2     1     2     2     1     0     0    11
 58.30 53.90     0     0     2     5    11     5     2     2     3     2     0     0    32
 55.90 52.90     0     0     0     5    14     7     4     6     6     3     0     0    44
 57.50 52.80     0     1     3     6    11     5     3     4     4     2     0     0    39
 55.80 52.80     0     0     0     4    14     6     4     5     6     2     0     0    41
 56.60 52.70     0     0     1     4     9     3     3     3     4     2     0     0    29
 58.30 52.60     0     0     0     6    14     8     5     7     7     4     0     0    51
 57.40 52.20     0     1     2     6    13     6     4     5     5     3     1     0    45
 58.20 51.90     0     0     0     7    16    12     9    11    10     5     0     0    68
 47.10 56.10     0     0     0     2     7     2     1     1     1     0     0     0    14
 47.50 55.50     0     0     0     4    11     3     1     2     2     1     0     0    24
 46.30 55.20     0     0     0     3    11     3     1     2     2     1     0     0    23
 46.60 54.90     0     0     0     2     8     3     1     2     1     1     0     0    17
 47.60 55.10     0     0     0     2    10     3     1     2     2     1     0     0    21
 48.30 59.90     0     0     1     4     9     3     0     0     0     0     0     0    18
 48.90 59.40     0     0     1     4    10     4     1     0     0     0     0     0    20
 47.90 58.80     0     0     1     3     8     3     0     0     0     0     0     0    15
 49.70 58.50     0     0     0     4     9     3     1     1     0     0     0     0    18
 47.10 58.30     0     0     1     3     8     2     1     0     0     0     0     0    15
 48.40 58.30     0     0     0     2     7     3     1     1     0     0     0     0    15
 49.10 58.00     0     0     1     3    10     4     1     1     0     0     0     0    20
 49.90 58.10     0     0     1     3     8     4     1     1     0     0     0     0    17
 47.90 57.40     0     0     0     2     7     3     2     1     0     0     0     0    15
 49.90 57.60     0     0     0     4    10     4     2     1     0     0     0     0    21
 47.30 56.90     0     0     0     3     8     3     2     2     1     0     0     0    17
 50.80 59.30     0     0     1     2     7     3     1     0     0     0     0     0    14
 52.20 59.30     0     0     1     4    10     5     1     0     0     0     0     0    22
 50.90 58.90     0     0     0     2     7     2     1     0     0     0     0     0    12
 51.60 58.40     0     0     0     2     8     3     1     1     0     0     0     0    14
 51.50 57.80     0     0     0     3     9     4     1     1     0     0     0     0    18
 50.00 57.10     0     0     0     3     9     3     1     1     1     1     0     0    18
 51.10 56.90     0     0     1     4    10     4     1     1     1     1     0     0    22
 51.10 56.20     0     0     0     3    12     5     1     2     1     1     0     0    24
 47.60 60.70     0     0     1     5     9     4     1     0     0     0     0     0    21
 52.60 60.50     0     0     2     5     8     4     2     1     0     0     0     0    22
 54.30 60.30     0     0     2     4     9     4     1     0     0     0     0     0    21
 55.00 59.90     0     0     2     5     9     4     1     0     0     0     0     0    21
 54.50 59.60     0     0     1     3     7     3     0     0     0     0     0     0    14
 54.70 59.00     0     0     1     2     7     2     0     0     0     0     0     0    13
 46.60 56.40     0     0     0     3     9     2     1     1     1     0     0     0    17
 48.70 57.00     0     0     0     2     8     4     2     2     0     0     0     0    18
 49.00 56.40     0     0     0     3    10     4     1     2     1     1     0     0    21
 43.20 54.60     0     0     0     3     6     2     2     2     1     0     0     0    17
 43.80 54.40     0     0     0     2     7     2     2     3     1     0     0     0    17
 43.30 54.10     0     0     0     2     8     3     1     2     2     0     0     0    18
 45.10 54.20     0     0     0     3    10     3     2     3     2     1     0     0    21
 45.90 54.20     0     0     0     5    12     5     3     4     2     1     0     0    31
 44.40 53.90     0     0     0     4    11     3     2     3     2     1     0     0    26
 43.80 56.30     0     0     1     4     9     2     1     1     0     0     0     0    17
 44.00 56.30     0     0     1     4     8     1     1     1     0     0     0     0    16
 43.40 56.70     0     0     0     2     4     0     0     1     0     0     0     0     8
 44.50 56.80     0     0     1     4     8     2     1     1     0     0     0     0    17
 45.40 56.80     0     0     1     6     8     3     2     1     1     0     0     0    20
 45.20 57.10     0     0     1     3     8     3     1     1     0     0     0     0    16
 46.60 57.70     0     0     1     3     7     2     1     1     0     0     0     0    15
 45.80 57.90     0     0     1     4     8     2     1     0     0     0     0     0    15
 43.40 56.20     0     0     0     3     7     2     1     1     0     0     0     0    11
 45.00 56.10     0     0     0     4     9     2     1     1     1     0     0     0    18
 43.00 55.90     0     0     0     4     8     2     1     1     1     0     0     0    17
 44.10 55.80     0     0     0     2     8     3     1     2     1     0     0     0    18
 45.50 55.50     0     0     0     2     7     2     1     2     1     0     0     0    14
 43.70 55.40     0     0     0     2     8     2     1     2     1     0     0     0    15
 45.30 55.00     0     0     0     4    10     3     2     3     1     1     0     0    22
 52.40 53.60     0     0     0     5    14     6     5     5     5     1     0     0    39
 53.70 53.70     0     0     0     4    12     6     4     6     5     2     0     0    28
 52.80 53.30     0     0     0     5    16     9     6     8     6     2     0     0    52
 52.10 53.00     0     0     1     7    15     8     6     7     6     2     0     0    53
 51.60 51.90     0     0     0     6    15    11     9    12     8     3     0     0    56
 53.10 52.40     0     0     0     7    15     9     8     9     8     3     0     0    59
 53.60 52.10     0     0     0     7    17    10     9    11     8     4     0     0    65
 56.40 52.30     0     0     0     4    16     8     6     8     7     3     0     0    52
 59.90 51.90     0     0     0     5    13    12     9    11     8     3     0     0    61
 53.40 51.50     0     0     0     9    18    12    10    13    10     5     0     0    77
 55.00 51.10     0     0     0     8    18    15    13    14    10     5     0     0    82
 55.10 51.80     0     0     0     8    17    12    11    13    10     4     0     0    76
 56.50 51.40     0     0     0     7    15    12    11    13    10     4     0     0    71
 57.40 51.50     0     0     0     7    16    10     8    12    10     5     0     0    69
 55.60 51.00     0     0     0     8    17    13    13    15    11     4     0     0    81
 60.90 51.10     0     0     0     6    15    14    11    14    10     4     0     0    74
 59.60 50.80     0     0     0     7    17    16    13    16    13     6     0     0    85
 42.60 53.50     0     0     0     4    10     4     2     3     2     1     0     0    27
 43.30 53.30     0     0     0     3     8     3     2     3     2     1     0     0    22
 45.70 53.30     0     0     1     5    11     4     2     3     3     1     0     0    30
 43.40 52.90     0     0     0     4    11     4     2     4     3     1     0     0    29
 44.10 53.20     0     0     0     5    12     5     3     4     4     1     0     0    34
 45.00 53.20     0     0     0     4     9     4     2     4     2     1     0     0    26
 45.10 52.80     0     0     0     3     9     4     3     4     3     1     0     0    27
 56.80 60.70     0     0     1     3     8     5     1     0     0     0     0     0    18
 58.40 60.60     0     0     2     5     9     6     2     0     0     0     0     0    24
 56.50 60.40     0     0     1     3     9     5     1     0     0     0     0     0    17
 56.80 59.60     0     0     1     5     8     3     1     0     0     0     0     0    11
 56.20 58.80     0     0     0     1     4     1     0     0     0     0     0     0     7
 58.90 58.50     0     0     1     2     5     2     0     0     0     0     0     0    11
 54.70 58.10     0     0     1     2     6     3     1     1     0     0     0     0    15
 56.50 58.50     0     0     1     4     9     3     1     0     0     0     0     0    16
 56.40 58.00     0     0     2     5     9     4     2     1     1     0     0     0    25
 57.80 58.10     0     0     2     5     9     4     1     1     1     0     0     0    24
 58.70 57.80     0     0     4     7    12     5     1     1     1     1     0     0    31
 54.70 57.70     0     0     1     2     8     4     1     1     1     0     0     0    17
 54.80 57.10     0     0     1     3     9     3     1     1     1     0     0     0    18
 55.40 57.70     0     0     1     4     8     4     1     1     0     0     0     0    19
 55.50 57.30     0     0     0     1     6     2     2     1     1     0     0     0    12
 56.90 57.40     0     0     1     4    11     5     1     1     1     0     0     0    23
 54.10 56.80     0     0     1     2     7     2     1     1     1     0     0     0    15
 57.30 56.50     0     1     2     4     9     3     1     1     1     1     0     0    22
 56.10 56.50     0     0     1     3     9     3     1     1     1     1     0     0    19
 49.50 53.50     0     0     0     4    12     4     3     4     3     1     0     0    29
 48.80 53.60     0     0     0     4    12     4     2     4     3     1     0     0    31
 49.50 53.30     0     0     0     4    11     4     2     4     3     1     0     0    29
 48.50 53.20     0     0     0     6    14     6     4     6     4     1     0     0    42
 49.40 53.00     0     0     0     7    16     7     4     6     6     2     0     0    50
 51.10 54.40     0     0     0     3    11     4     2     3     3     1     0     0    28
 52.10 54.20     0     0     0     5    14     6     3     4     4     1     0     0    37
 51.30 53.90     0     0     0     5    15     6     4     5     5     2     0     0    43
 50.20 53.30     0     0     0     7    14     6     3     5     4     2     0     0    40
 50.10 52.90     0     0     0     6    13     6     3     5     5     2     0     0    39
 51.30 52.60     0     0     0     7    17    10     8    10     8     3     0     0    64
 48.60 50.20     0     0     0     8    17    16    16    16    11     4     0     0    88
 48.10 50.40     0     0     0     7    15    14    14    15    10     3     0     0    76
 46.90 50.90     0     0     0     6    14    12    12    12     8     2     0     0    49
 45.40 51.10     0     0     0     7    15     9     8     9     6     2     0     0    57
 46.00 51.50     0     0     0     6    12     6     6     6     5     1     0     0    43
 43.20 51.60     0     0     0     5    11     5     4     6     4     2     0     0    36
 45.50 51.60     0     0     0     6    14     8     6     7     5     2     0     0    48
 46.70 51.70     0     0     0     9    17     9     7     8     7     3     0     0    55
 43.70 51.90     0     0     0     5    11     6     4     6     5     2     0     0    39
 45.00 51.90     0     0     0     6    14     7     5     7     5     2     0     0    34
 50.30 51.90     0     0     0     5    14     9     8     9     7     2     0     0    54
 48.80 52.00     0     0     0     8    17    11    10    11     8     3     0     0    68
 43.80 52.30     0     0     0     5    11     5     3     5     4     1     0     0    34
 45.40 52.30     0     0     0     6    14     7     5     7     5     2     0     0    46
 46.40 52.30     0     0     0     5    13     6     4     5     4     1     0     0    37
 48.10 52.50     0     0     0     5    12     4     3     4     3     1     0     0    33
 48.30 51.40     0     0     0     7    15    11    11    12     9     3     0     0    67
 44.50 51.50     0     0     0     4    11     6     4     6     5     2     0     0    30
 50.40 54.50     0     0     0     4    12     4     2     3     3     1     0     0    30
 52.80 54.60     0     0     0     4    13     4     2     3     3     1     0     0    30
 47.60 54.70     0     0     0     2     9     3     1     2     2     1     0     0    22
 48.90 54.90     0     0     0     2     6     2     1     2     2     1     0     0    15
 53.10 54.90     0     0     0     4    14     5     2     2     3     1     0     0    32
 52.10 55.00     0     0     0     3    10     3     1     2     2     1     0     0    23
 50.60 55.30     0     0     0     1     8     2     1     2     1     1     0     0    16
 53.20 55.30     0     0     0     3     9     3     1     2     2     1     0     0    21
 48.20 55.40     0     0     0     2     9     3     1     2     1     1     0     0    19
 49.60 55.40     0     0     0     3     8     3     1     1     0     0     0     0    16
 53.10 55.60     0     0     0     3    12     5     2     2     2     1     0     0    26
 48.50 55.80     0     0     0     3     7     2     1     1     1     0     0     0    15
 49.30 55.80     0     0     0     3     9     4     1     2     1     1     0     0    20
 52.10 55.80     0     0     0     3     9     3     2     1     1     1     0     0    18
 49.90 56.10     0     0     0     1     7     4     1     1     1     0     0     0    17
 52.70 58.10     0     0     0     2     9     3     1     1     0     0     0     0    16
 52.20 57.30     0     0     1     3    10     4     2     1     1     1     0     0    22
 53.80 57.60     0     0     1     3     9     3     1     1     1     0     0     0    18
 53.10 57.60     0     0     1     4    10     4     1     1     1     1     0     0    22
 54.10 57.10     0     0     0     3    10     4     1     1     1     0     0     0    21
 52.20 56.40     0     0     1     2     9     3     1     1     1     0     0     0    18
 53.30 56.90     0     0     0     3    10     4     2     1     1     0     0     0    21
 53.80 56.50     0     0     0     2     7     2     1     1     1     1     0     0    14
 47.50 53.20     0     0     0     7    15     8     6     7     5     2     0     0    50
 46.40 53.90     0     0     1     6    12     4     2     4     3     1     0     0    30
 48.80 54.00     0     0     0     4    10     3     1     3     2     1     0     0    24
 49.70 54.20     0     0     0     4    11     5     2     3     2     1     0     0    27
 48.30 54.30     0     0     0     5    11     4     2     3     2     1     0     0    22
 46.70 54.50     0     0     0     6    11     5     2     3     2     1     0     0    28
