 55.10 51.80      28      23      22      25      29      38      39      26      30      36      30      31     357
 60.90 51.10      16      13      17      22      34      33      39      24      19      24      20      16     277
 53.10 52.40      27      20      21      25      30      49      42      33      29      37      29      28     370
 52.80 53.30      25      18      19      26      32      51      48      44      40      40      29      27     399
 55.80 54.70      45      38      31      34      44      63      57      54      49      59      52      48     574
 58.60 55.90      23      17      17      23      44      66      82      63      52      45      31      24     487
 58.20 51.90      20      19      21      27      30      44      49      34      25      23      21      21     334
 59.40 54.40      19      16      20      29      41      64      81      54      32      31      22      19     428
 56.00 53.60      41      33      29      29      43      58      64      56      40      51      40      47     531
 56.40 58.00      44      30      27      35      56      76      76      74      68      60      53      42     641
 54.70 59.00      34      22      23      26      41      61      71      62      51      47      38      34     510
 58.90 58.50      58      41      46      51      63      88     107     101      89      82      73      62     861
 56.10 56.50      36      26      24      29      43      68      74      62      57      61      47      36     563
 55.00 59.90      45      28      31      36      56      76      81      70      61      59      51      48     642
 53.30 56.90      34      25      24      28      43      62      65      62      52      51      43      32     521
 49.70 58.50      44      32      33      36      55      68      80      72      64      60      56      51     651
 51.50 57.80      46      33      35      36      45      67      76      64      66      68      56      49     641
 52.20 59.30      40      28      32      35      57      76      76      69      62      60      51      44     630
 47.60 60.70      41      32      32      38      48      62      76      69      55      58      53      48     612
 49.30 55.80      37      33      29      32      38      62      69      56      48      51      46      38     539
 52.80 54.60      27      24      20      28      42      69      69      56      56      53      39      30     513
 53.10 55.60      29      23      18      26      38      55      62      59      51      47      34      27     469
 50.20 53.30      48      40      32      38      32      53      58      48      41      51      49      49     539
 51.10 54.40      33      26      22      29      35      64      55      50      46      50      38      33     481
 46.00 51.50      41      32      31      28      36      45      46      37      42      34      42      39     453
 48.10 50.40      28      20      21      25      26      37      37      22      32      31      29      30     338
 48.30 51.40      30      22      22      27      28      43      43      34      36      35      33      31     384
 50.30 51.90      37      29      27      25      27      47      41      32      41      39      37      39     421
 43.20 51.60      43      31      30      32      33      66      59      43      43      40      48      46     514
 45.00 53.20      38      31      34      33      39      64      63      51      49      48      46      41     537
 42.60 53.50      38      29      29      28      43      63      63      45      46      51      46      43     524
 48.30 54.30      31      24      21      30      36      64      68      49      49      38      30      29     469
 47.50 53.20      26      20      21      27      35      58      61      46      39      34      29      25     421
 45.10 54.20      34      25      26      31      36      53      62      52      51      45      40      35     490
 43.20 54.60      32      29      26      29      41      69      67      57      52      51      47      41     541
 47.10 56.10      31      25      25      32      38      68      68      57      58      54      44      35     535
 47.90 56.60      37      27      28      31      40      65      70      61      56      52      46      38     551
 49.00 56.40      32      26      26      32      40      57      72      55      49      48      42      34     513
 43.80 56.30      35      29      25      32      39      67      76      59      59      55      47      41     564
 46.60 57.70      32      24      23      33      46      68      83      67      62      59      50      40     587
 54.90 56.30      30      21      19      24      39      60      68      58      52      51      39      30     491
 56.60 56.10      41      37      29      32      44      61      76      62      64      68      51      42     607
 56.90 55.80      33      25      23      32      49      67      82      60      62      64      46      34     577
 58.60 55.90      23      17      17      23      44      66      82      63      52      45      31      24     487
 57.90 55.70      26      21      21      28      48      61      75      66      54      50      36      28     514
 54.30 55.40      29      22      18      22      35      62      56      60      53      47      36      29     469
 53.80 55.20      28      22      19      24      35      56      63      55      47      43      36      29     457
 55.50 55.40      37      31      25      30      42      65      68      57      58      61      51      42     567
 56.60 55.40      74      55      49      43      54      69      86      64      75      95      85      73     822
 55.40 55.10      33      27      22      27      36      58      58      47      45      50      42      37     482
 56.90 54.90      54      43      37      39      53      73      81      65      67      79      69      60     720
 54.90 54.10      28      23      21      26      38      56      54      41      38      38      32      31     426
 52.80 54.60      27      24      20      28      42      69      69      56      56      53      39      30     513
 54.20 54.00      41      32      31      30      42      64      56      54      52      55      50      46     553
 55.40 54.60      29      24      20      28      38      56      58      52      44      48      35      32     464
 56.80 54.40      36      31      28      36      48      67      73      68      57      66      54      44     608
 59.40 54.40      19      16      20      29      41      64      81      54      32      31      22      19     428
 57.40 53.90      40      34      35      43      55      77      87      71      71      72      55      46     686
 56.00 53.60      41      33      29      29      43      58      64      56      40      51      40      47     531
 55.10 53.10      52      36      40      36      46      57      55      50      47      59      54      52     584
 58.30 53.90      24      20      20      33      42      63      75      60      47      41      31      27     483
 55.90 52.90      35      28      27      26      35      50      50      40      35      47      38      40     451
 57.50 52.80      33      30      33      41      45      65      69      46      52      60      47      41     562
 55.80 52.80      54      41      38      32      39      51      54      37      45      63      59      59     572
 56.60 52.70      44      33      31      35      39      56      55      41      47      58      48      49     536
 58.30 52.60      20      16      18      27      29      49      51      35      28      25      21      20     339
 57.40 52.20      45      36      40      41      44      63      56      43      50      60      52      50     580
 58.20 51.90      20      19      21      27      30      44      49      34      25      23      21      21     334
 47.10 56.10      31      25      25      32      38      68      68      57      58      54      44      35     535
 47.50 55.50      25      22      22      30      39      62      66      52      51      49      37      29     484
 46.30 55.20      27      22      23      30      34      66      69      55      53      49      39      32     499
 46.60 54.90      30      25      24      29      36      54      61      47      47      43      38      35     469
 47.60 55.10      28      23      23      29      38      69      68      53      48      43      35      32     489
 48.30 59.90      39      31      33      38      62      72      82      76      61      64      52      47     657
 48.90 59.40      39      29      32      36      59      73      83      74      63      64      52      45     649
 47.90 58.80      44      33      32      37      56      76      84      68      62      61      54      50     657
 49.70 58.50      44      32      33      36      55      68      80      72      64      60      56      51     651
 47.10 58.30      33      25      25      33      51      71      77      65      60      58      45      39     582
 48.40 58.30      39      30      28      33      50      67      83      61      60      56      48      43     598
 49.10 58.00      56      39      40      37      52      69      76      71      65      73      66      62     706
 49.90 58.10      38      28      32      40      49      68      74      62      58      56      47      42     594
 47.90 57.40      34      28      27      32      43      65      75      59      61      58      43      36     561
 49.90 57.60      49      35      35      37      49      66      75      63      60      66      59      52     646
 47.30 56.90      31      25      25      31      41      66      74      59      55      50      42      34     533
 50.80 59.30      45      33      35      36      57      71      77      69      64      64      56      52     659
 52.20 59.30      40      28      32      35      57      76      76      69      62      60      51      44     630
 50.90 58.90      35      25      32      33      54      66      82      64      59      59      47      41     597
 51.60 58.40      42      31      35      33      47      67      74      64      63      63      52      44     615
 51.50 57.80      46      33      35      36      45      67      76      64      66      68      56      49     641
 50.00 57.10      31      24      26      32      40      62      73      57      58      54      44      32     533
 51.10 56.90      30      23      25      33      39      63      78      64      59      55      43      32     544
 51.10 56.20      30      23      21      30      38      62      72      57      47      45      39      30     494
 47.60 60.70      41      32      32      38      48      62      76      69      55      58      53      48     612
 52.60 60.50      43      28      32      35      59      76      71      69      64      62      52      45     636
 54.30 60.30      39      27      32      35      52      67      73      68      56      57      49      40     595
 55.00 59.90      45      28      31      36      56      76      81      70      61      59      51      48     642
 54.50 59.60      45      29      32      36      56      74      77      68      61      62      54      46     640
 54.70 59.00      34      22      23      26      41      61      71      62      51      47      38      34     510
 46.60 56.40      35      29      30      31      38      65      62      57      56      54      46      38     541
 48.70 57.00      28      24      23      33      40      60      71      63      56      49      39      27     513
 49.00 56.40      32      26      26      32      40      57      72      55      49      48      42      34     513
 43.20 54.60      32      29      26      29      41      69      67      57      52      51      47      41     541
 43.80 54.40      33      28      27      30      39      58      68      52      48      51      48      42     524
 43.30 54.10      32      26      26      31      39      65      69      55      53      50      44      37     527
 45.10 54.20      34      25      26      31      36      53      62      52      51      45      40      35     490
 45.90 54.20      31      26      27      31      35      56      65      50      47      42      39      37     486
 44.40 53.90      31      24      26      30      37      64      58      49      50      47      41      36     493
 43.80 56.30      35      29      25      32      39      67      76      59      59      55      47      41     564
 44.00 56.30      45      37      32      37      47      71      75      67      60      64      56      52     643
 43.40 56.70      46      37      32      40      44      72      74      59      60      63      56      51     634
 44.50 56.80      40      32      29      37      43      69      75      67      60      62      53      47     614
 45.40 56.80      41      33      29      37      44      71      72      62      57      56      50      45     597
 45.20 57.10      45      34      31      37      43      73      72      66      57      60      54      51     623
 46.60 57.70      32      24      23      33      46      68      83      67      62      59      50      40     587
 45.80 57.90      45      35      32      36      48      76      86      70      59      62      55      53     657
 43.40 56.20      45      39      31      34      38      78      78      64      60      59      52      54     632
 45.00 56.10      37      31      28      31      39      64      72      59      52      55      47      42     557
 43.00 55.90      38      34      27      35      40      65      69      63      54      58      51      48     582
 44.10 55.80      30      26      22      29      41      60      70      56      53      52      42      36     517
 45.50 55.50      37      31      28      32      42      62      70      58      55      56      46      44     561
 43.70 55.40      29      25      22      27      39      64      69      52      49      51      40      36     503
 45.30 55.00      28      23      25      31      40      65      65      54      48      49      40      34     502
 52.40 53.60      36      29      26      29      33      52      50      45      43      43      39      41     466
 53.70 53.70      24      20      20      27      37      60      52      38      43      42      30      27     420
 52.80 53.30      25      18      19      26      32      51      48      44      40      40      29      27     399
 52.10 53.00      46      36      32      32      36      58      58      41      42      54      47      48     530
 51.60 51.90      29      24      25      25      27      42      37      29      33      36      30      31     368
 53.10 52.40      27      20      21      25      30      49      42      33      29      37      29      28     370
 53.60 52.10      32      24      25      26      29      41      41      33      30      40      33      34     388
 56.40 52.30      54      37      36      36      41      50      49      38      44      60      52      58     555
 59.90 51.90      16      14      15      23      34      39      49      29      23      27      19      17     305
 53.40 51.50      31      23      25      24      28      39      36      27      27      39      34      34     367
 55.00 51.10      29      22      21      25      25      36      30      26      26      33      30      33     336
 55.10 51.80      28      23      22      25      29      38      39      26      30      36      30      31     357
 56.50 51.40      22      18      19      24      33      38      40      28      28      33      25      27     335
 57.40 51.50      44      32      31      34      38      43      44      35      39      54      44      49     487
 55.60 51.00      29      24      21      25      29      39      37      23      25      32      28      33     345
 60.90 51.10      16      13      17      22      34      33      39      24      19      24      20      16     277
 59.60 50.80      21      19      21      22      34      32      41      25      19      30      24      24     312
 42.60 53.50      38      29      29      28      43      63      63      45      46      51      46      43     524
 43.30 53.30      43      34      33      34      39      67      67      53      51      58      55      51     585
 45.70 53.30      41      33      34      39      45      65      73      57      54      57      51      46     595
 43.40 52.90      42      32      31      28      37      65      65      50      45      50      53      47     545
 44.10 53.20      33      26      29      32      41      57      67      57      46      46      44      38     516
 45.00 53.20      38      31      34      33      39      64      63      51      49      48      46      41     537
 45.10 52.80      38      29      30      32      41      59      65      51      45      45      44      38     517
 56.80 60.70      34      24      26      37      55      73      80      78      67      64      47      35     620
 58.40 60.60      55      38      38      55      70      83      89      90      78      82      70      56     804
 56.50 60.40      60      39      38      45      57      75      85      78      68      77      73      65     760
 56.80 59.60      48      34      33      40      66      86      78      88      77      70      58      52     730
 56.20 58.80      36      25      23      29      51      68      69      69      62      50      42      35     559
 58.90 58.50      58      41      46      51      63      88     107     101      89      82      73      62     861
 54.70 58.10      40      26      25      32      43      64      80      63      62      55      46      40     576
 56.50 58.50      44      28      29      34      55      77      77      72      75      58      52      45     646
 56.40 58.00      44      30      27      35      56      76      76      74      68      60      53      42     641
 57.80 58.10      48      32      30      36      55      74      78      83      68      59      55      48     666
 58.70 57.80      35      27      25      36      48      69      93      78      65      54      44      35     609
 54.70 57.70      46      31      28      32      46      62      74      63      58      59      48      45     592
 54.80 57.10      37      26      22      28      46      61      67      68      57      55      44      39     550
 55.40 57.70      40      27      25      30      47      65      65      66      59      52      44      38     558
 55.50 57.30      48      33      23      29      43      60      64      60      57      56      51      48     572
 56.90 57.40      29      22      19      30      46      65      75      71      59      49      42      32     539
 54.10 56.80      43      31      29      33      46      63      67      63      55      57      52      43     582
 57.30 56.50      48      37      35      38      55      70      86      76      76      82      65      51     719
 56.10 56.50      36      26      24      29      43      68      74      62      57      61      47      36     563
 49.50 53.50      38      28      25      30      35      53      58      46      43      43      40      35     474
 48.80 53.60      32      25      26      33      38      57      54      44      49      44      40      33     475
 49.50 53.30      55      38      34      38      36      60      58      48      49      60      62      56     594
 48.50 53.20      34      25      23      32      33      52      58      41      41      39      36      31     445
 49.40 53.00      35      28      24      30      30      51      54      40      38      39      35      34     438
 51.10 54.40      33      26      22      29      35      64      55      50      46      50      38      33     481
 52.10 54.20      56      42      34      34      39      64      62      55      56      64      61      58     625
 51.30 53.90      35      26      22      27      29      57      53      40      42      44      37      35     447
 50.20 53.30      48      40      32      38      32      53      58      48      41      51      49      49     539
 50.10 52.90      35      27      24      33      31      57      52      42      37      45      38      37     458
 51.30 52.60      25      21      20      26      31      51      43      33      34      36      30      28     378
 48.60 50.20      30      22      21      23      24      30      30      27      25      30      30      28     320
 48.10 50.40      28      20      21      25      26      37      37      22      32      31      29      30     338
 46.90 50.90      35      26      20      28      27      36      36      28      43      29      29      32     369
 45.40 51.10      34      29      26      28      36      49      49      36      44      34      39      36     440
 46.00 51.50      41      32      31      28      36      45      46      37      42      34      42      39     453
 43.20 51.60      43      31      30      32      33      66      59      43      43      40      48      46     514
 45.50 51.60      33      25      26      28      39      49      47      42      41      34      37      33     434
 46.70 51.70      31      25      25      31      28      41      46      39      43      32      34      32     407
 43.70 51.90      35      27      28      31      34      58      58      46      43      40      44      40     484
 45.00 51.90      36      30      29      32      42      65      60      45      49     126      41      40     595
 50.30 51.90      37      29      27      25      27      47      41      32      41      39      37      39     421
 48.80 52.00      32      25      23      28      27      51      49      37      37      34      33      32     408
 43.80 52.30      41      31      31      36      37      63      57      51      44      46      52      46     535
 45.40 52.30      32      24      25      35      41      64      61      49      43      41      40      35     490
 46.40 52.30      37      28      32      35      45      56      60      46      45      46      51      45     526
 48.10 52.50      47      34      36      38      36      51      57      42      45      40      48      45     519
 48.30 51.40      30      22      22      27      28      43      43      34      36      35      33      31     384
 44.50 51.50      38      30      29      30      40      59      56      36      44      36      41      40     479
 50.40 54.50      30      25      21      29      36      71      53      52      46      47      37      31     478
 52.80 54.60      27      24      20      28      42      69      69      56      56      53      39      30     513
 47.60 54.70      27      23      21      30      41      66      63      48      50      45      34      30     478
 48.90 54.90      28      24      20      28      37      63      58      53      46      47      37      30     471
 53.10 54.90      33      26      21      27      38      65      62      57      48      47      36      34     494
 52.10 55.00      34      26      23      27      39      62      57      50      49      47      38      34     486
 50.60 55.30      31      23      21      29      41      59      58      56      48      50      39      30     485
 53.20 55.30      27      21      17      24      38      57      61      52      44      44      31      27     443
 48.20 55.40      29      25      22      29      35      56      58      52      45      45      37      31     464
 49.60 55.40      42      34      28      33      37      60      58      54      50      55      48      43     542
 53.10 55.60      29      23      18      26      38      55      62      59      51      47      34      27     469
 48.50 55.80      31      25      22      30      37      53      65      48      45      44      38      32     470
 49.30 55.80      37      33      29      32      38      62      69      56      48      51      46      38     539
 52.10 55.80      38      31      25      28      47      57      65      64      50      54      46      37     542
 49.90 56.10      36      30      26      32      34      59      65      55      46      48      43      37     511
 52.70 58.10      33      23      26      33      44      71      73      58      65      57      45      34     562
 52.20 57.30      32      25      26      31      43      64      74      60      60      56      46      32     549
 53.80 57.60      33      26      23      31      46      67      75      61      62      51      41      32     548
 53.10 57.60      40      29      30      34      47      69      72      61      66      58      51      41     598
 54.10 57.10      43      31      29      31      46      61      64      62      58      56      52      43     576
 52.20 56.40      45      35      34      37      49      73      74      62      63      61      57      48     638
 53.30 56.90      34      25      24      28      43      62      65      62      52      51      43      32     521
 53.80 56.50      41      31      28      30      47      63      60      66      55      55      48      42     566
 47.50 53.20      26      20      21      27      35      58      61      46      39      34      29      25     421
 46.40 53.90      29      24      25      33      41      61      79      59      47      44      38      34     514
 48.80 54.00      32      25      24      33      35      60      55      48      46      42      37      31     468
 49.70 54.20      50      39      32      36      33      64      53      48      51      56      48      46     556
 48.30 54.30      31      24      21      30      36      64      68      49      49      38      30      29     469
 46.70 54.50      30      25      24      31      38      63      65      58      47      43      37      34     495
